%!PS-Adobe-2.0 EPSF-2.0
%%Title: /home/msoderen/repositories/masterthesis/figures/buffersaver.dia
%%Creator: Dia v0.97.3
%%CreationDate: Wed Sep 27 19:57:01 2017
%%For: msoderen
%%Orientation: Portrait
%%Magnification: 1.0000
%%BoundingBox: 0 0 922 311
%%BeginSetup
%%EndSetup
%%EndComments
%%BeginProlog
[ /.notdef /.notdef /.notdef /.notdef /.notdef /.notdef /.notdef /.notdef /.notdef /.notdef
/.notdef /.notdef /.notdef /.notdef /.notdef /.notdef /.notdef /.notdef /.notdef /.notdef
/.notdef /.notdef /.notdef /.notdef /.notdef /.notdef /.notdef /.notdef /.notdef /.notdef
/.notdef /.notdef /space /exclam /quotedbl /numbersign /dollar /percent /ampersand /quoteright
/parenleft /parenright /asterisk /plus /comma /hyphen /period /slash /zero /one
/two /three /four /five /six /seven /eight /nine /colon /semicolon
/less /equal /greater /question /at /A /B /C /D /E
/F /G /H /I /J /K /L /M /N /O
/P /Q /R /S /T /U /V /W /X /Y
/Z /bracketleft /backslash /bracketright /asciicircum /underscore /quoteleft /a /b /c
/d /e /f /g /h /i /j /k /l /m
/n /o /p /q /r /s /t /u /v /w
/x /y /z /braceleft /bar /braceright /asciitilde /.notdef /.notdef /.notdef
/.notdef /.notdef /.notdef /.notdef /.notdef /.notdef /.notdef /.notdef /.notdef /.notdef
/.notdef /.notdef /.notdef /.notdef /.notdef /.notdef /.notdef /.notdef /.notdef /.notdef
/.notdef /.notdef /.notdef /.notdef /.notdef /.notdef /.notdef /.notdef /.notdef /.notdef
/space /exclamdown /cent /sterling /currency /yen /brokenbar /section /dieresis /copyright
/ordfeminine /guillemotleft /logicalnot /hyphen /registered /macron /degree /plusminus /twosuperior /threesuperior
/acute /mu /paragraph /periodcentered /cedilla /onesuperior /ordmasculine /guillemotright /onequarter /onehalf
/threequarters /questiondown /Agrave /Aacute /Acircumflex /Atilde /Adieresis /Aring /AE /Ccedilla
/Egrave /Eacute /Ecircumflex /Edieresis /Igrave /Iacute /Icircumflex /Idieresis /Eth /Ntilde
/Ograve /Oacute /Ocircumflex /Otilde /Odieresis /multiply /Oslash /Ugrave /Uacute /Ucircumflex
/Udieresis /Yacute /Thorn /germandbls /agrave /aacute /acircumflex /atilde /adieresis /aring
/ae /ccedilla /egrave /eacute /ecircumflex /edieresis /igrave /iacute /icircumflex /idieresis
/eth /ntilde /ograve /oacute /ocircumflex /otilde /odieresis /divide /oslash /ugrave
/uacute /ucircumflex /udieresis /yacute /thorn /ydieresis] /isolatin1encoding exch def
/cp {closepath} bind def
/c {curveto} bind def
/f {fill} bind def
/a {arc} bind def
/ef {eofill} bind def
/ex {exch} bind def
/gr {grestore} bind def
/gs {gsave} bind def
/sa {save} bind def
/rs {restore} bind def
/l {lineto} bind def
/m {moveto} bind def
/rm {rmoveto} bind def
/n {newpath} bind def
/s {stroke} bind def
/sh {show} bind def
/slc {setlinecap} bind def
/slj {setlinejoin} bind def
/slw {setlinewidth} bind def
/srgb {setrgbcolor} bind def
/rot {rotate} bind def
/sc {scale} bind def
/sd {setdash} bind def
/ff {findfont} bind def
/sf {setfont} bind def
/scf {scalefont} bind def
/sw {stringwidth pop} bind def
/tr {translate} bind def

/ellipsedict 8 dict def
ellipsedict /mtrx matrix put
/ellipse
{ ellipsedict begin
   /endangle exch def
   /startangle exch def
   /yrad exch def
   /xrad exch def
   /y exch def
   /x exch def   /savematrix mtrx currentmatrix def
   x y tr xrad yrad sc
   0 0 1 startangle endangle arc
   savematrix setmatrix
   end
} def

/mergeprocs {
dup length
3 -1 roll
dup
length
dup
5 1 roll
3 -1 roll
add
array cvx
dup
3 -1 roll
0 exch
putinterval
dup
4 2 roll
putinterval
} bind def
/Times-Roman-latin1
    /Times-Roman findfont
    dup length dict begin
	{1 index /FID ne {def} {pop pop} ifelse} forall
	/Encoding isolatin1encoding def
    currentdict end
definefont pop
/Times-Italic-latin1
    /Times-Italic findfont
    dup length dict begin
	{1 index /FID ne {def} {pop pop} ifelse} forall
	/Encoding isolatin1encoding def
    currentdict end
definefont pop
/Times-Bold-latin1
    /Times-Bold findfont
    dup length dict begin
	{1 index /FID ne {def} {pop pop} ifelse} forall
	/Encoding isolatin1encoding def
    currentdict end
definefont pop
/Times-BoldItalic-latin1
    /Times-BoldItalic findfont
    dup length dict begin
	{1 index /FID ne {def} {pop pop} ifelse} forall
	/Encoding isolatin1encoding def
    currentdict end
definefont pop
/AvantGarde-Gothic-latin1
    /AvantGarde-Gothic findfont
    dup length dict begin
	{1 index /FID ne {def} {pop pop} ifelse} forall
	/Encoding isolatin1encoding def
    currentdict end
definefont pop
/AvantGarde-BookOblique-latin1
    /AvantGarde-BookOblique findfont
    dup length dict begin
	{1 index /FID ne {def} {pop pop} ifelse} forall
	/Encoding isolatin1encoding def
    currentdict end
definefont pop
/AvantGarde-Demi-latin1
    /AvantGarde-Demi findfont
    dup length dict begin
	{1 index /FID ne {def} {pop pop} ifelse} forall
	/Encoding isolatin1encoding def
    currentdict end
definefont pop
/AvantGarde-DemiOblique-latin1
    /AvantGarde-DemiOblique findfont
    dup length dict begin
	{1 index /FID ne {def} {pop pop} ifelse} forall
	/Encoding isolatin1encoding def
    currentdict end
definefont pop
/Bookman-Light-latin1
    /Bookman-Light findfont
    dup length dict begin
	{1 index /FID ne {def} {pop pop} ifelse} forall
	/Encoding isolatin1encoding def
    currentdict end
definefont pop
/Bookman-LightItalic-latin1
    /Bookman-LightItalic findfont
    dup length dict begin
	{1 index /FID ne {def} {pop pop} ifelse} forall
	/Encoding isolatin1encoding def
    currentdict end
definefont pop
/Bookman-Demi-latin1
    /Bookman-Demi findfont
    dup length dict begin
	{1 index /FID ne {def} {pop pop} ifelse} forall
	/Encoding isolatin1encoding def
    currentdict end
definefont pop
/Bookman-DemiItalic-latin1
    /Bookman-DemiItalic findfont
    dup length dict begin
	{1 index /FID ne {def} {pop pop} ifelse} forall
	/Encoding isolatin1encoding def
    currentdict end
definefont pop
/Courier-latin1
    /Courier findfont
    dup length dict begin
	{1 index /FID ne {def} {pop pop} ifelse} forall
	/Encoding isolatin1encoding def
    currentdict end
definefont pop
/Courier-Oblique-latin1
    /Courier-Oblique findfont
    dup length dict begin
	{1 index /FID ne {def} {pop pop} ifelse} forall
	/Encoding isolatin1encoding def
    currentdict end
definefont pop
/Courier-Bold-latin1
    /Courier-Bold findfont
    dup length dict begin
	{1 index /FID ne {def} {pop pop} ifelse} forall
	/Encoding isolatin1encoding def
    currentdict end
definefont pop
/Courier-BoldOblique-latin1
    /Courier-BoldOblique findfont
    dup length dict begin
	{1 index /FID ne {def} {pop pop} ifelse} forall
	/Encoding isolatin1encoding def
    currentdict end
definefont pop
/Helvetica-latin1
    /Helvetica findfont
    dup length dict begin
	{1 index /FID ne {def} {pop pop} ifelse} forall
	/Encoding isolatin1encoding def
    currentdict end
definefont pop
/Helvetica-Oblique-latin1
    /Helvetica-Oblique findfont
    dup length dict begin
	{1 index /FID ne {def} {pop pop} ifelse} forall
	/Encoding isolatin1encoding def
    currentdict end
definefont pop
/Helvetica-Bold-latin1
    /Helvetica-Bold findfont
    dup length dict begin
	{1 index /FID ne {def} {pop pop} ifelse} forall
	/Encoding isolatin1encoding def
    currentdict end
definefont pop
/Helvetica-BoldOblique-latin1
    /Helvetica-BoldOblique findfont
    dup length dict begin
	{1 index /FID ne {def} {pop pop} ifelse} forall
	/Encoding isolatin1encoding def
    currentdict end
definefont pop
/Helvetica-Narrow-latin1
    /Helvetica-Narrow findfont
    dup length dict begin
	{1 index /FID ne {def} {pop pop} ifelse} forall
	/Encoding isolatin1encoding def
    currentdict end
definefont pop
/Helvetica-Narrow-Oblique-latin1
    /Helvetica-Narrow-Oblique findfont
    dup length dict begin
	{1 index /FID ne {def} {pop pop} ifelse} forall
	/Encoding isolatin1encoding def
    currentdict end
definefont pop
/Helvetica-Narrow-Bold-latin1
    /Helvetica-Narrow-Bold findfont
    dup length dict begin
	{1 index /FID ne {def} {pop pop} ifelse} forall
	/Encoding isolatin1encoding def
    currentdict end
definefont pop
/Helvetica-Narrow-BoldOblique-latin1
    /Helvetica-Narrow-BoldOblique findfont
    dup length dict begin
	{1 index /FID ne {def} {pop pop} ifelse} forall
	/Encoding isolatin1encoding def
    currentdict end
definefont pop
/NewCenturySchlbk-Roman-latin1
    /NewCenturySchlbk-Roman findfont
    dup length dict begin
	{1 index /FID ne {def} {pop pop} ifelse} forall
	/Encoding isolatin1encoding def
    currentdict end
definefont pop
/NewCenturySchlbk-Italic-latin1
    /NewCenturySchlbk-Italic findfont
    dup length dict begin
	{1 index /FID ne {def} {pop pop} ifelse} forall
	/Encoding isolatin1encoding def
    currentdict end
definefont pop
/NewCenturySchlbk-Bold-latin1
    /NewCenturySchlbk-Bold findfont
    dup length dict begin
	{1 index /FID ne {def} {pop pop} ifelse} forall
	/Encoding isolatin1encoding def
    currentdict end
definefont pop
/NewCenturySchlbk-BoldItalic-latin1
    /NewCenturySchlbk-BoldItalic findfont
    dup length dict begin
	{1 index /FID ne {def} {pop pop} ifelse} forall
	/Encoding isolatin1encoding def
    currentdict end
definefont pop
/Palatino-Roman-latin1
    /Palatino-Roman findfont
    dup length dict begin
	{1 index /FID ne {def} {pop pop} ifelse} forall
	/Encoding isolatin1encoding def
    currentdict end
definefont pop
/Palatino-Italic-latin1
    /Palatino-Italic findfont
    dup length dict begin
	{1 index /FID ne {def} {pop pop} ifelse} forall
	/Encoding isolatin1encoding def
    currentdict end
definefont pop
/Palatino-Bold-latin1
    /Palatino-Bold findfont
    dup length dict begin
	{1 index /FID ne {def} {pop pop} ifelse} forall
	/Encoding isolatin1encoding def
    currentdict end
definefont pop
/Palatino-BoldItalic-latin1
    /Palatino-BoldItalic findfont
    dup length dict begin
	{1 index /FID ne {def} {pop pop} ifelse} forall
	/Encoding isolatin1encoding def
    currentdict end
definefont pop
/Symbol-latin1
    /Symbol findfont
definefont pop
/ZapfChancery-MediumItalic-latin1
    /ZapfChancery-MediumItalic findfont
    dup length dict begin
	{1 index /FID ne {def} {pop pop} ifelse} forall
	/Encoding isolatin1encoding def
    currentdict end
definefont pop
/ZapfDingbats-latin1
    /ZapfDingbats findfont
    dup length dict begin
	{1 index /FID ne {def} {pop pop} ifelse} forall
	/Encoding isolatin1encoding def
    currentdict end
definefont pop
28.346000 -28.346000 scale
-9.950000 -18.850000 translate
%%EndProlog


1.000000 1.000000 1.000000 srgb
n 14.600000 9.000000 m 14.600000 18.800000 l 38.200000 18.800000 l 38.200000 9.000000 l f
0.100000 slw
[] 0 sd
[] 0 sd
0 slj
0.000000 0.000000 0.000000 srgb
n 14.600000 9.000000 m 14.600000 18.800000 l 38.200000 18.800000 l 38.200000 9.000000 l cp s
/Helvetica-latin1 ff 0.560000 scf sf
1.000000 1.000000 1.000000 srgb
n 15.400000 9.600000 m 15.400000 11.758333 l 25.200000 11.758333 l 25.200000 9.600000 l f
0.100000 slw
[] 0 sd
[] 0 sd
0 slj
0.000000 0.000000 0.000000 srgb
n 15.400000 9.600000 m 15.400000 11.758333 l 25.200000 11.758333 l 25.200000 9.600000 l cp s
/Helvetica-latin1 ff 0.740833 scf sf
(ObsBox) dup sw 2 div 20.300000 ex sub 10.725833 m
 gs 1 -1 sc sh gr
1.000000 1.000000 1.000000 srgb
n 15.400000 12.800000 m 15.400000 15.000000 l 25.200000 15.000000 l 25.200000 12.800000 l f
0.100000 slw
[] 0 sd
[] 0 sd
0 slj
0.000000 0.000000 0.000000 srgb
n 15.400000 12.800000 m 15.400000 15.000000 l 25.200000 15.000000 l 25.200000 12.800000 l cp s
/Helvetica-latin1 ff 0.740833 scf sf
(ObsBoxBuffer) dup sw 2 div 20.300000 ex sub 13.946667 m
 gs 1 -1 sc sh gr
1.000000 1.000000 1.000000 srgb
n 15.400000 16.000000 m 15.400000 18.158333 l 25.200000 18.158333 l 25.200000 16.000000 l f
0.100000 slw
[] 0 sd
[] 0 sd
0 slj
0.000000 0.000000 0.000000 srgb
n 15.400000 16.000000 m 15.400000 18.158333 l 25.200000 18.158333 l 25.200000 16.000000 l cp s
/Helvetica-latin1 ff 0.740833 scf sf
(Instability Detection) dup sw 2 div 20.300000 ex sub 17.125833 m
 gs 1 -1 sc sh gr
1.000000 1.000000 1.000000 srgb
n 27.700000 12.800000 m 27.700000 14.958333 l 37.500000 14.958333 l 37.500000 12.800000 l f
0.100000 slw
[] 0 sd
[] 0 sd
0 slj
0.000000 0.000000 0.000000 srgb
n 27.700000 12.800000 m 27.700000 14.958333 l 37.500000 14.958333 l 37.500000 12.800000 l cp s
/Helvetica-latin1 ff 0.740833 scf sf
(ADTBufferSaver) dup sw 2 div 32.600000 ex sub 13.925833 m
 gs 1 -1 sc sh gr
1.000000 1.000000 1.000000 srgb
n 10.000000 14.400000 m 10.000000 16.558333 l 13.000000 16.558333 l 13.000000 14.400000 l f
0.100000 slw
[] 0 sd
[] 0 sd
0 slj
0.000000 0.000000 0.000000 srgb
n 10.000000 14.400000 m 10.000000 16.558333 l 13.000000 16.558333 l 13.000000 14.400000 l cp s
/Helvetica-latin1 ff 0.740833 scf sf
(LIST) dup sw 2 div 11.500000 ex sub 15.525833 m
 gs 1 -1 sc sh gr
1.000000 1.000000 1.000000 srgb
n 39.400000 12.800000 m 39.400000 14.958333 l 42.400000 14.958333 l 42.400000 12.800000 l f
0.100000 slw
[] 0 sd
[] 0 sd
0 slj
0.000000 0.000000 0.000000 srgb
n 39.400000 12.800000 m 39.400000 14.958333 l 42.400000 14.958333 l 42.400000 12.800000 l cp s
/Helvetica-latin1 ff 0.740833 scf sf
(NFS) dup sw 2 div 40.900000 ex sub 13.925833 m
 gs 1 -1 sc sh gr
0.100000 slw
[] 0 sd
[] 0 sd
0 slc
n 20.300000 11.806773 m 20.300000 12.526376 l s
0.100000 slw
[] 0 sd
0 slj
0 slc
n 20.050000 12.138180 m 20.300000 12.638180 l 20.550000 12.138180 l s
0.100000 slw
[] 0 sd
[] 0 sd
0 slc
n 20.300000 15.049498 m 20.300000 15.731675 l s
0.100000 slw
[] 0 sd
0 slj
0 slc
n 20.050000 15.343478 m 20.300000 15.843478 l 20.550000 15.343478 l s
0.100000 slw
[] 0 sd
[] 0 sd
0 slc
n 15.349731 16.179118 m 13.269561 15.800905 l s
0.100000 slw
[] 0 sd
0 slj
0 slc
n 13.696217 15.624380 m 13.159561 15.780905 l 13.606774 16.116315 l s
0.100000 slw
[] 0 sd
[] 0 sd
0 slc
n 13.049561 15.201097 m 15.129640 14.827825 l s
0.100000 slw
[] 0 sd
0 slj
0 slc
n 14.791704 15.142461 m 15.239686 14.808077 l 14.703390 14.650322 l s
0.100000 slw
[] 0 sd
[] 0 sd
0 slc
n 25.249579 13.891617 m 27.426815 13.887929 l s
0.100000 slw
[] 0 sd
0 slj
0 slc
n 27.039042 14.138586 m 27.538618 13.887739 l 27.038195 13.638587 l s
0.100000 slw
[] 0 sd
[] 0 sd
0 slc
n 37.549402 13.879167 m 39.127235 13.879167 l s
0.100000 slw
[] 0 sd
0 slj
0 slc
n 38.739039 14.129167 m 39.239039 13.879167 l 38.739039 13.629167 l s
/Helvetica-latin1 ff 0.740833 scf sf
(Physical Server) 23.300000 8.488333 m
 gs 1 -1 sc sh gr
/Helvetica-latin1 ff 0.560000 scf sf
1.000000 0.000000 0.000000 srgb
(1) 20.700000 12.340000 m
 gs 1 -1 sc sh gr
/Helvetica-latin1 ff 0.560000 scf sf
(2) 20.700000 15.540000 m
 gs 1 -1 sc sh gr
/Helvetica-latin1 ff 0.560000 scf sf
(3) 13.800000 16.440000 m
 gs 1 -1 sc sh gr
/Helvetica-latin1 ff 0.560000 scf sf
(4) 13.800000 14.740000 m
 gs 1 -1 sc sh gr
/Helvetica-latin1 ff 0.560000 scf sf
(5) 26.200000 13.540000 m
 gs 1 -1 sc sh gr
/Helvetica-latin1 ff 0.560000 scf sf
(6) 38.600000 13.240000 m
 gs 1 -1 sc sh gr
showpage
