%!PS-Adobe-2.0 EPSF-2.0
%%Title: /home/msoderen/repositories/masterthesis/figures/designoverview.dia
%%Creator: Dia v0.97.3
%%CreationDate: Wed Sep 27 17:35:28 2017
%%For: msoderen
%%Orientation: Portrait
%%Magnification: 1.0000
%%BoundingBox: 0 0 967 236
%%BeginSetup
%%EndSetup
%%EndComments
%%BeginProlog
[ /.notdef /.notdef /.notdef /.notdef /.notdef /.notdef /.notdef /.notdef /.notdef /.notdef
/.notdef /.notdef /.notdef /.notdef /.notdef /.notdef /.notdef /.notdef /.notdef /.notdef
/.notdef /.notdef /.notdef /.notdef /.notdef /.notdef /.notdef /.notdef /.notdef /.notdef
/.notdef /.notdef /space /exclam /quotedbl /numbersign /dollar /percent /ampersand /quoteright
/parenleft /parenright /asterisk /plus /comma /hyphen /period /slash /zero /one
/two /three /four /five /six /seven /eight /nine /colon /semicolon
/less /equal /greater /question /at /A /B /C /D /E
/F /G /H /I /J /K /L /M /N /O
/P /Q /R /S /T /U /V /W /X /Y
/Z /bracketleft /backslash /bracketright /asciicircum /underscore /quoteleft /a /b /c
/d /e /f /g /h /i /j /k /l /m
/n /o /p /q /r /s /t /u /v /w
/x /y /z /braceleft /bar /braceright /asciitilde /.notdef /.notdef /.notdef
/.notdef /.notdef /.notdef /.notdef /.notdef /.notdef /.notdef /.notdef /.notdef /.notdef
/.notdef /.notdef /.notdef /.notdef /.notdef /.notdef /.notdef /.notdef /.notdef /.notdef
/.notdef /.notdef /.notdef /.notdef /.notdef /.notdef /.notdef /.notdef /.notdef /.notdef
/space /exclamdown /cent /sterling /currency /yen /brokenbar /section /dieresis /copyright
/ordfeminine /guillemotleft /logicalnot /hyphen /registered /macron /degree /plusminus /twosuperior /threesuperior
/acute /mu /paragraph /periodcentered /cedilla /onesuperior /ordmasculine /guillemotright /onequarter /onehalf
/threequarters /questiondown /Agrave /Aacute /Acircumflex /Atilde /Adieresis /Aring /AE /Ccedilla
/Egrave /Eacute /Ecircumflex /Edieresis /Igrave /Iacute /Icircumflex /Idieresis /Eth /Ntilde
/Ograve /Oacute /Ocircumflex /Otilde /Odieresis /multiply /Oslash /Ugrave /Uacute /Ucircumflex
/Udieresis /Yacute /Thorn /germandbls /agrave /aacute /acircumflex /atilde /adieresis /aring
/ae /ccedilla /egrave /eacute /ecircumflex /edieresis /igrave /iacute /icircumflex /idieresis
/eth /ntilde /ograve /oacute /ocircumflex /otilde /odieresis /divide /oslash /ugrave
/uacute /ucircumflex /udieresis /yacute /thorn /ydieresis] /isolatin1encoding exch def
/cp {closepath} bind def
/c {curveto} bind def
/f {fill} bind def
/a {arc} bind def
/ef {eofill} bind def
/ex {exch} bind def
/gr {grestore} bind def
/gs {gsave} bind def
/sa {save} bind def
/rs {restore} bind def
/l {lineto} bind def
/m {moveto} bind def
/rm {rmoveto} bind def
/n {newpath} bind def
/s {stroke} bind def
/sh {show} bind def
/slc {setlinecap} bind def
/slj {setlinejoin} bind def
/slw {setlinewidth} bind def
/srgb {setrgbcolor} bind def
/rot {rotate} bind def
/sc {scale} bind def
/sd {setdash} bind def
/ff {findfont} bind def
/sf {setfont} bind def
/scf {scalefont} bind def
/sw {stringwidth pop} bind def
/tr {translate} bind def

/ellipsedict 8 dict def
ellipsedict /mtrx matrix put
/ellipse
{ ellipsedict begin
   /endangle exch def
   /startangle exch def
   /yrad exch def
   /xrad exch def
   /y exch def
   /x exch def   /savematrix mtrx currentmatrix def
   x y tr xrad yrad sc
   0 0 1 startangle endangle arc
   savematrix setmatrix
   end
} def

/mergeprocs {
dup length
3 -1 roll
dup
length
dup
5 1 roll
3 -1 roll
add
array cvx
dup
3 -1 roll
0 exch
putinterval
dup
4 2 roll
putinterval
} bind def
/Times-Roman-latin1
    /Times-Roman findfont
    dup length dict begin
	{1 index /FID ne {def} {pop pop} ifelse} forall
	/Encoding isolatin1encoding def
    currentdict end
definefont pop
/Times-Italic-latin1
    /Times-Italic findfont
    dup length dict begin
	{1 index /FID ne {def} {pop pop} ifelse} forall
	/Encoding isolatin1encoding def
    currentdict end
definefont pop
/Times-Bold-latin1
    /Times-Bold findfont
    dup length dict begin
	{1 index /FID ne {def} {pop pop} ifelse} forall
	/Encoding isolatin1encoding def
    currentdict end
definefont pop
/Times-BoldItalic-latin1
    /Times-BoldItalic findfont
    dup length dict begin
	{1 index /FID ne {def} {pop pop} ifelse} forall
	/Encoding isolatin1encoding def
    currentdict end
definefont pop
/AvantGarde-Gothic-latin1
    /AvantGarde-Gothic findfont
    dup length dict begin
	{1 index /FID ne {def} {pop pop} ifelse} forall
	/Encoding isolatin1encoding def
    currentdict end
definefont pop
/AvantGarde-BookOblique-latin1
    /AvantGarde-BookOblique findfont
    dup length dict begin
	{1 index /FID ne {def} {pop pop} ifelse} forall
	/Encoding isolatin1encoding def
    currentdict end
definefont pop
/AvantGarde-Demi-latin1
    /AvantGarde-Demi findfont
    dup length dict begin
	{1 index /FID ne {def} {pop pop} ifelse} forall
	/Encoding isolatin1encoding def
    currentdict end
definefont pop
/AvantGarde-DemiOblique-latin1
    /AvantGarde-DemiOblique findfont
    dup length dict begin
	{1 index /FID ne {def} {pop pop} ifelse} forall
	/Encoding isolatin1encoding def
    currentdict end
definefont pop
/Bookman-Light-latin1
    /Bookman-Light findfont
    dup length dict begin
	{1 index /FID ne {def} {pop pop} ifelse} forall
	/Encoding isolatin1encoding def
    currentdict end
definefont pop
/Bookman-LightItalic-latin1
    /Bookman-LightItalic findfont
    dup length dict begin
	{1 index /FID ne {def} {pop pop} ifelse} forall
	/Encoding isolatin1encoding def
    currentdict end
definefont pop
/Bookman-Demi-latin1
    /Bookman-Demi findfont
    dup length dict begin
	{1 index /FID ne {def} {pop pop} ifelse} forall
	/Encoding isolatin1encoding def
    currentdict end
definefont pop
/Bookman-DemiItalic-latin1
    /Bookman-DemiItalic findfont
    dup length dict begin
	{1 index /FID ne {def} {pop pop} ifelse} forall
	/Encoding isolatin1encoding def
    currentdict end
definefont pop
/Courier-latin1
    /Courier findfont
    dup length dict begin
	{1 index /FID ne {def} {pop pop} ifelse} forall
	/Encoding isolatin1encoding def
    currentdict end
definefont pop
/Courier-Oblique-latin1
    /Courier-Oblique findfont
    dup length dict begin
	{1 index /FID ne {def} {pop pop} ifelse} forall
	/Encoding isolatin1encoding def
    currentdict end
definefont pop
/Courier-Bold-latin1
    /Courier-Bold findfont
    dup length dict begin
	{1 index /FID ne {def} {pop pop} ifelse} forall
	/Encoding isolatin1encoding def
    currentdict end
definefont pop
/Courier-BoldOblique-latin1
    /Courier-BoldOblique findfont
    dup length dict begin
	{1 index /FID ne {def} {pop pop} ifelse} forall
	/Encoding isolatin1encoding def
    currentdict end
definefont pop
/Helvetica-latin1
    /Helvetica findfont
    dup length dict begin
	{1 index /FID ne {def} {pop pop} ifelse} forall
	/Encoding isolatin1encoding def
    currentdict end
definefont pop
/Helvetica-Oblique-latin1
    /Helvetica-Oblique findfont
    dup length dict begin
	{1 index /FID ne {def} {pop pop} ifelse} forall
	/Encoding isolatin1encoding def
    currentdict end
definefont pop
/Helvetica-Bold-latin1
    /Helvetica-Bold findfont
    dup length dict begin
	{1 index /FID ne {def} {pop pop} ifelse} forall
	/Encoding isolatin1encoding def
    currentdict end
definefont pop
/Helvetica-BoldOblique-latin1
    /Helvetica-BoldOblique findfont
    dup length dict begin
	{1 index /FID ne {def} {pop pop} ifelse} forall
	/Encoding isolatin1encoding def
    currentdict end
definefont pop
/Helvetica-Narrow-latin1
    /Helvetica-Narrow findfont
    dup length dict begin
	{1 index /FID ne {def} {pop pop} ifelse} forall
	/Encoding isolatin1encoding def
    currentdict end
definefont pop
/Helvetica-Narrow-Oblique-latin1
    /Helvetica-Narrow-Oblique findfont
    dup length dict begin
	{1 index /FID ne {def} {pop pop} ifelse} forall
	/Encoding isolatin1encoding def
    currentdict end
definefont pop
/Helvetica-Narrow-Bold-latin1
    /Helvetica-Narrow-Bold findfont
    dup length dict begin
	{1 index /FID ne {def} {pop pop} ifelse} forall
	/Encoding isolatin1encoding def
    currentdict end
definefont pop
/Helvetica-Narrow-BoldOblique-latin1
    /Helvetica-Narrow-BoldOblique findfont
    dup length dict begin
	{1 index /FID ne {def} {pop pop} ifelse} forall
	/Encoding isolatin1encoding def
    currentdict end
definefont pop
/NewCenturySchlbk-Roman-latin1
    /NewCenturySchlbk-Roman findfont
    dup length dict begin
	{1 index /FID ne {def} {pop pop} ifelse} forall
	/Encoding isolatin1encoding def
    currentdict end
definefont pop
/NewCenturySchlbk-Italic-latin1
    /NewCenturySchlbk-Italic findfont
    dup length dict begin
	{1 index /FID ne {def} {pop pop} ifelse} forall
	/Encoding isolatin1encoding def
    currentdict end
definefont pop
/NewCenturySchlbk-Bold-latin1
    /NewCenturySchlbk-Bold findfont
    dup length dict begin
	{1 index /FID ne {def} {pop pop} ifelse} forall
	/Encoding isolatin1encoding def
    currentdict end
definefont pop
/NewCenturySchlbk-BoldItalic-latin1
    /NewCenturySchlbk-BoldItalic findfont
    dup length dict begin
	{1 index /FID ne {def} {pop pop} ifelse} forall
	/Encoding isolatin1encoding def
    currentdict end
definefont pop
/Palatino-Roman-latin1
    /Palatino-Roman findfont
    dup length dict begin
	{1 index /FID ne {def} {pop pop} ifelse} forall
	/Encoding isolatin1encoding def
    currentdict end
definefont pop
/Palatino-Italic-latin1
    /Palatino-Italic findfont
    dup length dict begin
	{1 index /FID ne {def} {pop pop} ifelse} forall
	/Encoding isolatin1encoding def
    currentdict end
definefont pop
/Palatino-Bold-latin1
    /Palatino-Bold findfont
    dup length dict begin
	{1 index /FID ne {def} {pop pop} ifelse} forall
	/Encoding isolatin1encoding def
    currentdict end
definefont pop
/Palatino-BoldItalic-latin1
    /Palatino-BoldItalic findfont
    dup length dict begin
	{1 index /FID ne {def} {pop pop} ifelse} forall
	/Encoding isolatin1encoding def
    currentdict end
definefont pop
/Symbol-latin1
    /Symbol findfont
definefont pop
/ZapfChancery-MediumItalic-latin1
    /ZapfChancery-MediumItalic findfont
    dup length dict begin
	{1 index /FID ne {def} {pop pop} ifelse} forall
	/Encoding isolatin1encoding def
    currentdict end
definefont pop
/ZapfDingbats-latin1
    /ZapfDingbats findfont
    dup length dict begin
	{1 index /FID ne {def} {pop pop} ifelse} forall
	/Encoding isolatin1encoding def
    currentdict end
definefont pop
28.346000 -28.346000 scale
-4.950000 -10.266667 translate
%%EndProlog


1.000000 1.000000 1.000000 srgb
n 5.000000 7.000000 m 5.000000 10.216667 l 15.000000 10.216667 l 15.000000 7.000000 l f
0.100000 slw
[] 0 sd
[] 0 sd
0 slj
0.000000 0.000000 0.000000 srgb
n 5.000000 7.000000 m 5.000000 10.216667 l 15.000000 10.216667 l 15.000000 7.000000 l cp s
/Helvetica-latin1 ff 0.740833 scf sf
(ObsBoxBuffer) dup sw 2 div 10.000000 ex sub 8.125833 m
 gs 1 -1 sc sh gr
(4096 turns) dup sw 2 div 10.000000 ex sub 9.184167 m
 gs 1 -1 sc sh gr
1.000000 1.000000 1.000000 srgb
n 5.000000 2.000000 m 5.000000 5.216667 l 15.000000 5.216667 l 15.000000 2.000000 l f
0.100000 slw
[] 0 sd
[] 0 sd
0 slj
0.000000 0.000000 0.000000 srgb
n 5.000000 2.000000 m 5.000000 5.216667 l 15.000000 5.216667 l 15.000000 2.000000 l cp s
/Helvetica-latin1 ff 0.740833 scf sf
(Periodic trigger ) dup sw 2 div 10.000000 ex sub 3.125833 m
 gs 1 -1 sc sh gr
(every 4096 turn) dup sw 2 div 10.000000 ex sub 4.184167 m
 gs 1 -1 sc sh gr
0.100000 slw
[0.200000] 0 sd
[0.200000] 0 sd
0 slc
n 10.000000 5.266658 m 10.000000 6.726401 l s
0.100000 slw
[] 0 sd
0 slj
0 slc
n 9.750000 6.338205 m 10.000000 6.838205 l 10.250000 6.338205 l s
1.000000 1.000000 1.000000 srgb
n 17.000000 7.000000 m 17.000000 10.216667 l 27.000000 10.216667 l 27.000000 7.000000 l f
0.100000 slw
[] 0 sd
[] 0 sd
0 slj
0.000000 0.000000 0.000000 srgb
n 17.000000 7.000000 m 17.000000 10.216667 l 27.000000 10.216667 l 27.000000 7.000000 l cp s
/Helvetica-latin1 ff 0.740833 scf sf
(Custom Event) dup sw 2 div 22.000000 ex sub 8.125833 m
 gs 1 -1 sc sh gr
(Source) dup sw 2 div 22.000000 ex sub 9.184167 m
 gs 1 -1 sc sh gr
0.100000 slw
[] 0 sd
[] 0 sd
0 slc
n 15.044922 8.608333 m 16.731471 8.608333 l s
0.100000 slw
[] 0 sd
0 slj
0 slc
n 16.343275 8.858333 m 16.843275 8.608333 l 16.343275 8.358333 l s
1.000000 1.000000 1.000000 srgb
n 17.000000 2.000000 m 17.000000 5.216667 l 27.000000 5.216667 l 27.000000 2.000000 l f
0.100000 slw
[] 0 sd
[] 0 sd
0 slj
0.000000 0.000000 0.000000 srgb
n 17.000000 2.000000 m 17.000000 5.216667 l 27.000000 5.216667 l 27.000000 2.000000 l cp s
/Helvetica-latin1 ff 0.740833 scf sf
(Real-time) dup sw 2 div 22.000000 ex sub 3.125833 m
 gs 1 -1 sc sh gr
(action) dup sw 2 div 22.000000 ex sub 4.184167 m
 gs 1 -1 sc sh gr
0.100000 slw
[] 0 sd
[] 0 sd
0 slc
n 22.000000 6.950008 m 22.000000 5.490265 l s
0.100000 slw
[] 0 sd
0 slj
0 slc
n 22.250000 5.878462 m 22.000000 5.378462 l 21.750000 5.878462 l s
1.000000 1.000000 1.000000 srgb
n 29.000000 2.000000 m 29.000000 5.216667 l 39.000000 5.216667 l 39.000000 2.000000 l f
0.100000 slw
[] 0 sd
[] 0 sd
0 slj
0.000000 0.000000 0.000000 srgb
n 29.000000 2.000000 m 29.000000 5.216667 l 39.000000 5.216667 l 39.000000 2.000000 l cp s
/Helvetica-latin1 ff 0.740833 scf sf
(Instability Detection) dup sw 2 div 34.000000 ex sub 3.125833 m
 gs 1 -1 sc sh gr
(System) dup sw 2 div 34.000000 ex sub 4.184167 m
 gs 1 -1 sc sh gr
0.100000 slw
[] 0 sd
[] 0 sd
0 slc
n 27.044922 3.608333 m 28.731471 3.608333 l s
0.100000 slw
[] 0 sd
0 slj
0 slc
n 28.343275 3.858333 m 28.843275 3.608333 l 28.343275 3.358333 l s
1.000000 1.000000 1.000000 srgb
n 29.000000 7.000000 m 29.000000 10.200000 l 39.000000 10.200000 l 39.000000 7.000000 l f
0.100000 slw
[] 0 sd
[] 0 sd
0 slj
0.000000 0.000000 0.000000 srgb
n 29.000000 7.000000 m 29.000000 10.200000 l 39.000000 10.200000 l 39.000000 7.000000 l cp s
/Helvetica-latin1 ff 0.740833 scf sf
(LIST) dup sw 2 div 34.000000 ex sub 8.646667 m
 gs 1 -1 sc sh gr
0.100000 slw
[] 0 sd
[] 0 sd
0 slc
n 34.000000 5.266332 m 34.000000 6.727535 l s
0.100000 slw
[] 0 sd
0 slj
0 slc
n 33.750000 6.339338 m 34.000000 6.839338 l 34.250000 6.339338 l s
showpage
