%!PS-Adobe-3.0 EPSF-3.0
%%Title: /home/msoderen/repositories/masterthesis/figures/injection.eps
%%Creator: matplotlib version 1.5.1, http://matplotlib.org/
%%CreationDate: Fri Aug 11 16:39:12 2017
%%Orientation: portrait
%%BoundingBox: 18 180 594 612
%%EndComments
%%BeginProlog
/mpldict 7 dict def
mpldict begin
/m { moveto } bind def
/l { lineto } bind def
/r { rlineto } bind def
/c { curveto } bind def
/cl { closepath } bind def
/box {
m
1 index 0 r
0 exch r
neg 0 r
cl
} bind def
/clipbox {
box
clip
newpath
} bind def
end
%%EndProlog
mpldict begin
18 180 translate
576 432 0 0 clipbox
100000 setmiterlimit
gsave
0 0 m
576 0 l
576 432 l
0 432 l
cl
1.000 setgray
fill
grestore
gsave
72 43.2 m
518.4 43.2 l
518.4 388.8 l
72 388.8 l
cl
1.000 setgray
fill
grestore
1.000 setlinewidth
1 setlinejoin
2 setlinecap
[] 0 setdash
0.000 0.000 1.000 setrgbcolor
gsave
446.4 345.6 72 43.2 clipbox
444 216 m
446.290363 216.734974 l
448.339219 217.48994 l
449.946617 218.258517 l
450.956249 219.031282 l
451.270529 219.797198 l
450.859835 220.545305 l
449.76505 221.266462 l
448.093174 221.954886 l
443.706377 223.233468 l
439.345425 224.430156 l
437.696706 225.031189 l
436.618609 225.655754 l
436.205258 226.319165 l
436.484624 227.033437 l
437.416199 227.805475 l
438.895378 228.635777 l
446.680274 232.314985 l
448.072441 233.223625 l
448.899552 234.081012 l
449.071209 234.86772 l
448.561148 235.570673 l
447.409356 236.185013 l
445.717707 236.715161 l
441.364343 237.586327 l
437.046854 238.382428 l
435.389109 238.832032 l
434.265972 239.356465 l
433.763913 239.978868 l
433.90748 240.713159 l
434.657379 241.562115 l
435.914818 242.516548 l
442.649717 246.844033 l
443.811588 247.864089 l
444.447816 248.783563 l
444.476083 249.575776 l
443.873614 250.225962 l
442.678898 250.733228 l
440.987393 251.111145 l
436.71721 251.598758 l
432.491353 252.018565 l
430.842885 252.323257 l
429.687149 252.747841 l
429.102185 253.322131 l
429.109017 254.061531 l
429.670135 254.96503 l
430.693722 256.01484 l
436.316095 260.851727 l
437.238056 261.954238 l
437.679175 262.913224 l
437.565878 263.69591 l
436.878947 264.286255 l
435.654841 264.686968 l
433.981558 264.919668 l
429.838265 265.049774 l
425.746209 265.119605 l
424.123522 265.2867 l
422.947121 265.61232 l
422.286063 266.131807 l
422.15782 266.861633 l
422.527148 267.797384 l
423.310136 268.913794 l
427.783418 274.121184 l
428.461127 275.277415 l
428.706907 276.253706 l
428.45637 277.012333 l
427.693849 277.536384 l
426.453338 277.831778 l
424.814555 277.927039 l
420.835995 277.727247 l
416.914104 277.474824 l
415.331962 277.512248 l
414.146342 277.740346 l
413.416975 278.198844 l
413.157811 278.904899 l
413.336274 279.851092 l
413.877063 281.005832 l
417.189521 286.447312 l
417.623665 287.629263 l
417.677667 288.601399 l
417.29657 289.322174 l
416.468197 289.77418 l
415.223717 289.966141 l
413.633972 289.932332 l
409.852371 289.431244 l
406.13147 288.885151 l
404.602982 288.801281 l
403.419122 288.933809 l
402.630145 289.325739 l
402.246576 289.99455 l
402.238814 290.93023 l
402.540662 292.096016 l
404.703921 297.639967 l
404.899891 298.820831 l
404.769214 299.768443 l
404.266427 300.438524 l
403.382719 300.81352 l
402.146162 300.90454 l
400.618335 300.750466 l
397.060609 299.977186 l
393.566315 299.16639 l
392.103027 298.969918 l
390.931459 299.009313 l
390.092415 299.329794 l
389.59314 299.948828 l
389.40724 300.854234 l
389.477908 302.005207 l
390.525175 307.526867 l
390.492687 308.681441 l
390.187673 309.585567 l
389.57405 310.193258 l
388.646205 310.487135 l
387.428924 310.480271 l
385.974333 310.215045 l
382.662446 309.198758 l
379.415524 308.152203 l
378.027526 307.852024 l
376.878348 307.801182 l
375.999535 308.04612 l
375.395234 308.603988 l
375.042416 309.460853 l
374.893755 310.572963 l
374.877799 315.956234 l
374.630464 317.061285 l
374.164357 317.904637 l
373.452508 318.43956 l
372.4923 318.649135 l
371.305109 318.547985 l
369.933605 318.180915 l
366.884947 316.95053 l
363.901707 315.696799 l
362.597743 315.301917 l
361.480628 315.16419 l
360.572986 315.330356 l
359.87609 315.816982 l
359.370353 316.608795 l
359.017852 317.660133 l
358.008779 322.799129 l
357.563634 323.833695 l
356.95221 324.600894 l
356.156253 325.054134 l
355.1759 325.177206 l
354.029074 324.985884 l
352.749146 324.52639 l
349.976933 323.110251 l
347.269632 321.677294 l
346.057198 321.196756 l
344.9814 320.97594 l
344.056391 321.061042 l
343.280822 321.467815 l
342.638565 322.180036 l
342.100861 323.151113 l
340.183741 327.951427 l
339.560746 328.89707 l
338.82192 329.574831 l
337.957209 329.939055 l
336.969243 329.974458 l
335.872508 329.697579 l
334.691381 329.155118 l
332.205055 327.58078 l
329.782293 325.995702 l
328.667746 325.438537 l
327.642086 325.138876 l
326.711555 325.14162 l
325.872458 325.461511 l
325.112073 326.08175 l
324.410437 326.955712 l
321.682824 331.335414 l
320.904345 332.176412 l
320.057756 332.753691 l
319.140603 333.02324 l
318.15772 332.970873 l
317.120236 332.61354 l
316.043966 331.99756 l
313.849585 330.291614 l
311.716701 328.580517 l
310.705349 327.955707 l
309.738197 327.581892 l
308.814224 327.502027 l
307.927676 327.72968 l
307.069132 328.247825 l
306.226937 329.010617 l
302.796341 332.900975 l
301.886613 333.624459 l
300.953206 334.092555 l
300.000583 334.263502 l
299.035493 334.12436 l
298.065831 333.692151 l
297.099388 333.012048 l
295.2 331.2 l
293.359441 329.387881 l
292.455624 328.704327 l
291.554873 328.261503 l
290.649614 328.099851 l
289.732325 328.231647 l
288.796742 328.63995 l
287.838927 329.280421 l
283.82026 332.626354 l
282.804855 333.222389 l
281.806455 333.575 l
280.835705 333.645189 l
279.900968 333.421367 l
279.007074 332.920326 l
278.154424 332.185417 l
276.550415 330.291614 l
275.002079 328.402293 l
274.209241 327.668807 l
273.382268 327.162569 l
272.507783 326.921045 l
271.576803 326.955127 l
270.586024 327.248249 l
269.538559 327.758205 l
265.051622 330.518477 l
263.95692 330.980092 l
262.91581 331.213334 l
261.944347 331.18238 l
261.052208 330.877068 l
260.241368 330.31369 l
259.505531 329.533195 l
258.194945 327.58078 l
256.936493 325.636875 l
256.257241 324.86217 l
255.510854 324.29856 l
254.678945 323.98017 l
253.751356 323.91645 l
252.727526 324.091461 l
250.438275 324.979966 l
246.783919 326.612831 l
245.636593 326.935994 l
244.575105 327.048373 l
243.620123 326.917642 l
242.782349 326.535104 l
242.061138 325.916316 l
241.444245 325.099345 l
240.423067 323.110251 l
239.450201 321.133175 l
238.886343 320.325859 l
238.226733 319.71136 l
237.448762 319.320183 l
236.541393 319.16031 l
235.50655 319.216649 l
233.126298 319.814603 l
229.302538 320.972897 l
228.129061 321.156447 l
227.069178 321.148797 l
226.147373 320.92135 l
225.375088 320.466886 l
224.749319 319.80003 l
224.25265 318.955573 l
223.515053 316.95053 l
222.821752 314.96051 l
222.374337 314.129089 l
221.807009 313.470603 l
221.093733 313.011757 l
220.222868 312.759066 l
219.198554 312.698464 l
216.782555 313.005994 l
212.880329 313.689151 l
211.706508 313.734679 l
210.669491 313.610067 l
209.79679 313.290586 l
209.100315 312.77048 l
208.574981 312.063273 l
208.198996 311.200194 l
207.737554 309.198758 l
207.316276 307.214871 l
206.985608 306.367743 l
206.515315 305.672574 l
205.87672 305.152164 l
205.057831 304.811587 l
204.064724 304.637953 l
201.666328 304.660866 l
197.773359 304.877645 l
196.623907 304.789341 l
195.629949 304.55293 l
194.821256 304.147615 l
194.209957 303.569063 l
193.789172 302.82957 l
193.533527 301.956596 l
193.339391 299.977186 l
193.181239 298.017398 l
192.966886 297.162852 l
192.597564 296.438668 l
192.042699 295.863717 l
191.290196 295.441681 l
190.347774 295.160958 l
188.017553 294.910355 l
184.216939 294.678188 l
183.115079 294.462649 l
182.182982 294.12154 l
181.45195 293.637984 l
180.934096 293.009012 l
180.621036 292.245594 l
180.484595 291.371304 l
180.547629 289.431244 l
180.642485 287.512457 l
180.543279 286.658662 l
180.277973 285.913452 l
179.81481 285.291815 l
179.141808 284.796111 l
178.268041 284.416103 l
176.05301 283.90793 l
172.421958 283.252159 l
171.389074 282.918166 l
170.535972 282.481211 l
169.894793 281.928256 l
169.477426 281.25762 l
169.27427 280.478883 l
169.255108 279.611692 l
169.564005 277.727247 l
169.900624 275.86534 l
169.914654 275.020333 l
169.755455 274.262355 l
169.390748 273.60262 l
168.808865 273.04225 l
168.019944 272.572424 l
165.962877 271.826963 l
162.571611 270.779985 l
161.626945 270.338253 l
160.868054 269.815843 l
160.327278 269.20342 l
160.016097 268.500495 l
159.923977 267.715224 l
160.019374 266.863361 l
160.561735 265.049774 l
161.127823 263.259639 l
161.252425 262.431303 l
161.200406 261.669019 l
160.939576 260.980392 l
160.458752 260.365406 l
159.768862 259.816671 l
157.907711 258.857979 l
154.818547 257.458315 l
153.978945 256.921225 l
153.327356 256.325067 l
152.895739 255.664015 l
152.695004 254.938671 l
152.713953 254.15576 l
152.920394 253.32724 l
153.68279 251.598758 l
154.465058 249.894323 l
154.6968 249.090359 l
154.75196 248.332363 l
154.598993 247.624543 l
154.227346 246.965852 l
153.64847 246.350329 l
152.015894 245.205641 l
149.282498 243.496951 l
148.562205 242.878263 l
148.028721 242.221133 l
147.713102 241.523015 l
147.625554 240.785484 l
147.754474 240.013855 l
148.067638 239.216443 l
149.035657 237.586327 l
150.019853 235.980574 l
150.354519 235.208464 l
150.515745 234.4634 l
150.473111 233.746442 l
150.216819 233.055629 l
149.758596 232.386395 l
148.381595 231.085505 l
146.04842 229.115565 l
145.458929 228.430121 l
145.05194 227.725615 l
144.857153 227.002516 l
144.883958 226.263251 l
145.120585 225.511768 l
145.535346 224.75294 l
146.693623 223.233468 l
147.864558 221.738424 l
148.297144 221.005389 l
148.56217 220.28186 l
148.630767 219.566031 l
148.493988 218.855149 l
148.163605 218.145986 l
147.063272 216.720606 l
145.165176 214.540264 l
144.715126 213.803683 l
144.44053 213.065964 l
144.369346 212.330288 l
144.51006 211.599817 l
144.850957 210.87719 l
145.994835 209.460884 l
148.035192 207.39326 l
148.559896 206.706209 l
148.925291 206.012682 l
149.104409 205.30831 l
149.089232 204.589672 l
148.891365 203.854808 l
148.08274 202.337925 l
146.644781 200.000054 l
146.33991 199.228433 l
146.201078 198.471964 l
146.25418 197.736232 l
146.506737 197.025004 l
146.947289 196.339691 l
148.260862 195.039151 l
150.53086 193.172236 l
151.141086 192.537709 l
151.602245 191.882411 l
151.889559 191.199733 l
151.995989 190.485705 l
151.932785 189.739554 l
151.424821 188.164792 l
150.462228 185.723261 l
150.305369 184.932871 l
150.303148 184.172164 l
150.479143 183.448803 l
150.839872 182.76704 l
151.374301 182.127148 l
152.84132 180.953618 l
155.313754 179.300662 l
156.002125 178.724766 l
156.553286 178.115582 l
156.944871 177.464586 l
157.170847 176.767385 l
157.241952 176.024287 l
157.037577 174.425288 l
156.555885 171.933956 l
156.547017 171.14095 l
156.679779 170.390316 l
156.975241 169.691462 l
157.438898 169.049004 l
158.060295 168.462183 l
159.663268 167.425839 l
162.309751 165.998421 l
163.702404 164.931132 l
164.192776 164.321408 l
164.534229 163.652894 l
164.736847 162.926872 l
164.833133 161.336696 l
164.828471 158.848452 l
164.964811 158.068587 l
165.228535 157.341893 l
165.638077 156.679194 l
166.197913 156.085355 l
166.898289 155.558696 l
168.618544 154.66854 l
171.409576 153.476477 l
172.938525 152.5389 l
173.520708 151.979488 l
173.971641 151.350973 l
174.300645 150.655499 l
174.68906 149.106056 l
175.148584 146.671918 l
175.424724 145.920291 l
175.81312 145.230734 l
176.329502 144.615166 l
176.977342 144.07859 l
178.620246 143.225162 l
184.117277 141.136279 l
184.782891 140.635528 l
185.335499 140.057596 l
186.146029 138.689384 l
187.760849 134.885974 l
188.265513 134.245873 l
188.879772 133.687565 l
189.60613 133.216096 l
191.353297 132.513039 l
197.063273 130.905064 l
197.802653 130.470499 l
198.447459 129.952832 l
199.492234 128.690402 l
201.778001 125.137986 l
202.388603 124.558586 l
203.090213 124.066667 l
203.884418 123.667222 l
205.71429 123.122422 l
211.572903 122.008549 l
213.101262 121.197976 l
214.357715 120.064071 l
217.254779 116.828425 l
217.959272 116.319732 l
218.736328 115.902187 l
220.504162 115.35094 l
222.486828 115.108293 l
226.506024 114.788249 l
228.271023 114.30541 l
229.808092 113.476004 l
231.181008 112.368245 l
233.211521 110.595698 l
234.73189 109.657398 l
236.465224 109.082074 l
238.391474 108.870274 l
244.347311 108.764991 l
246.0898 108.274191 l
247.68871 107.454281 l
251.591681 105.017838 l
253.329903 104.424913 l
255.210658 104.21217 l
257.190594 104.308983 l
261.151326 104.661845 l
263.011938 104.515268 l
264.774008 104.026938 l
266.473579 103.267753 l
269.030681 102.029932 l
270.811257 101.449204 l
272.67334 101.225402 l
274.599172 101.355515 l
280.379526 102.251605 l
282.226466 102.11206 l
284.043427 101.660792 l
288.616242 100.184869 l
290.48979 99.96285 l
292.377823 100.100588 l
294.262847 100.528634 l
297.98738 101.529624 l
299.838528 101.728766 l
301.702575 101.612954 l
304.543229 101.027321 l
306.457653 100.624866 l
308.364308 100.437348 l
310.238457 100.578567 l
312.065386 101.042789 l
317.400048 102.889509 l
319.235036 103.110521 l
321.133989 103.05482 l
326.007331 102.62354 l
327.887755 102.784561 l
329.67582 103.265091 l
331.376354 104.001208 l
334.693761 105.597538 l
336.429428 106.132162 l
338.26732 106.394668 l
341.181729 106.438289 l
344.10523 106.537179 l
345.941039 106.8862 l
347.640097 107.52906 l
349.216788 108.405878 l
352.270847 110.27138 l
353.910438 110.963754 l
355.68795 111.409572 l
358.555959 111.763924 l
361.42294 112.17308 l
363.183211 112.703563 l
364.768658 113.499518 l
366.202062 114.505757 l
368.956261 116.616975 l
370.475754 117.457279 l
372.162791 118.078394 l
374.931027 118.733423 l
377.688472 119.441763 l
379.343746 120.144184 l
380.792507 121.081737 l
382.064743 122.204435 l
384.485722 124.534776 l
385.862717 125.510965 l
387.43088 126.296464 l
390.04869 127.236874 l
392.646463 128.228138 l
394.169207 129.090171 l
395.460093 130.155708 l
396.555108 131.380337 l
398.613164 133.900307 l
399.827235 134.998269 l
401.250272 135.934545 l
403.670532 137.140173 l
406.062172 138.39331 l
407.427219 139.40005 l
408.541256 140.578028 l
409.445076 141.888646 l
411.114636 144.566132 l
412.147656 145.769883 l
413.401876 146.840877 l
415.581729 148.287139 l
417.72517 149.776768 l
418.910105 150.910993 l
419.830837 152.184153 l
420.531799 153.563574 l
421.791853 156.364188 l
422.628288 157.656093 l
423.692933 158.84358 l
425.594434 160.501977 l
427.452635 162.198901 l
428.438139 163.441376 l
429.151892 164.790984 l
429.640852 166.220981 l
430.475342 169.108442 l
431.102508 170.469471 l
431.96007 171.753373 l
434.096039 174.204535 l
435.092219 175.463828 l
435.862364 176.793625 l
436.358474 178.199745 l
436.628977 179.661273 l
437.027128 182.597838 l
437.435406 184.007841 l
438.071891 185.36657 l
439.75667 188.013493 l
440.524438 189.362471 l
441.066919 190.757327 l
441.337912 192.199111 l
441.364343 194.413673 l
441.342926 196.619478 l
441.525929 198.057484 l
441.931063 199.468304 l
443.137424 202.26176 l
443.664547 203.675845 l
443.970855 205.112527 l
444.012586 206.568521 l
443.706377 208.766532 l
443.353788 210.951988 l
443.308487 212.396519 l
443.475858 213.835924 l
443.807874 215.277102 l
443.807874 215.277102 l
stroke
grestore
0 setlinecap
[6 6] 0 setdash
1.000 0.000 0.000 setrgbcolor
gsave
446.4 345.6 72 43.2 clipbox
442.512 100.8 m
442.512 216 l
stroke
grestore
0 setlinejoin
2 setlinecap
[] 0 setdash
0.000 setgray
gsave
72 388.8 m
518.4 388.8 l
stroke
grestore
gsave
72 43.2 m
72 388.8 l
stroke
grestore
gsave
518.4 43.2 m
518.4 388.8 l
stroke
grestore
gsave
72 43.2 m
518.4 43.2 l
stroke
grestore

end
showpage
