%!PS-Adobe-2.0 EPSF-2.0
%%Title: /home/msoderen/repositories/masterthesis/figures/obsboxOverview.dia
%%Creator: Dia v0.97.3
%%CreationDate: Thu Aug 17 17:59:17 2017
%%For: msoderen
%%Orientation: Portrait
%%Magnification: 1.0000
%%BoundingBox: 0 0 911 681
%%BeginSetup
%%EndSetup
%%EndComments
%%BeginProlog
[ /.notdef /.notdef /.notdef /.notdef /.notdef /.notdef /.notdef /.notdef /.notdef /.notdef
/.notdef /.notdef /.notdef /.notdef /.notdef /.notdef /.notdef /.notdef /.notdef /.notdef
/.notdef /.notdef /.notdef /.notdef /.notdef /.notdef /.notdef /.notdef /.notdef /.notdef
/.notdef /.notdef /space /exclam /quotedbl /numbersign /dollar /percent /ampersand /quoteright
/parenleft /parenright /asterisk /plus /comma /hyphen /period /slash /zero /one
/two /three /four /five /six /seven /eight /nine /colon /semicolon
/less /equal /greater /question /at /A /B /C /D /E
/F /G /H /I /J /K /L /M /N /O
/P /Q /R /S /T /U /V /W /X /Y
/Z /bracketleft /backslash /bracketright /asciicircum /underscore /quoteleft /a /b /c
/d /e /f /g /h /i /j /k /l /m
/n /o /p /q /r /s /t /u /v /w
/x /y /z /braceleft /bar /braceright /asciitilde /.notdef /.notdef /.notdef
/.notdef /.notdef /.notdef /.notdef /.notdef /.notdef /.notdef /.notdef /.notdef /.notdef
/.notdef /.notdef /.notdef /.notdef /.notdef /.notdef /.notdef /.notdef /.notdef /.notdef
/.notdef /.notdef /.notdef /.notdef /.notdef /.notdef /.notdef /.notdef /.notdef /.notdef
/space /exclamdown /cent /sterling /currency /yen /brokenbar /section /dieresis /copyright
/ordfeminine /guillemotleft /logicalnot /hyphen /registered /macron /degree /plusminus /twosuperior /threesuperior
/acute /mu /paragraph /periodcentered /cedilla /onesuperior /ordmasculine /guillemotright /onequarter /onehalf
/threequarters /questiondown /Agrave /Aacute /Acircumflex /Atilde /Adieresis /Aring /AE /Ccedilla
/Egrave /Eacute /Ecircumflex /Edieresis /Igrave /Iacute /Icircumflex /Idieresis /Eth /Ntilde
/Ograve /Oacute /Ocircumflex /Otilde /Odieresis /multiply /Oslash /Ugrave /Uacute /Ucircumflex
/Udieresis /Yacute /Thorn /germandbls /agrave /aacute /acircumflex /atilde /adieresis /aring
/ae /ccedilla /egrave /eacute /ecircumflex /edieresis /igrave /iacute /icircumflex /idieresis
/eth /ntilde /ograve /oacute /ocircumflex /otilde /odieresis /divide /oslash /ugrave
/uacute /ucircumflex /udieresis /yacute /thorn /ydieresis] /isolatin1encoding exch def
/cp {closepath} bind def
/c {curveto} bind def
/f {fill} bind def
/a {arc} bind def
/ef {eofill} bind def
/ex {exch} bind def
/gr {grestore} bind def
/gs {gsave} bind def
/sa {save} bind def
/rs {restore} bind def
/l {lineto} bind def
/m {moveto} bind def
/rm {rmoveto} bind def
/n {newpath} bind def
/s {stroke} bind def
/sh {show} bind def
/slc {setlinecap} bind def
/slj {setlinejoin} bind def
/slw {setlinewidth} bind def
/srgb {setrgbcolor} bind def
/rot {rotate} bind def
/sc {scale} bind def
/sd {setdash} bind def
/ff {findfont} bind def
/sf {setfont} bind def
/scf {scalefont} bind def
/sw {stringwidth pop} bind def
/tr {translate} bind def

/ellipsedict 8 dict def
ellipsedict /mtrx matrix put
/ellipse
{ ellipsedict begin
   /endangle exch def
   /startangle exch def
   /yrad exch def
   /xrad exch def
   /y exch def
   /x exch def   /savematrix mtrx currentmatrix def
   x y tr xrad yrad sc
   0 0 1 startangle endangle arc
   savematrix setmatrix
   end
} def

/mergeprocs {
dup length
3 -1 roll
dup
length
dup
5 1 roll
3 -1 roll
add
array cvx
dup
3 -1 roll
0 exch
putinterval
dup
4 2 roll
putinterval
} bind def
/Times-Roman-latin1
    /Times-Roman findfont
    dup length dict begin
	{1 index /FID ne {def} {pop pop} ifelse} forall
	/Encoding isolatin1encoding def
    currentdict end
definefont pop
/Times-Italic-latin1
    /Times-Italic findfont
    dup length dict begin
	{1 index /FID ne {def} {pop pop} ifelse} forall
	/Encoding isolatin1encoding def
    currentdict end
definefont pop
/Times-Bold-latin1
    /Times-Bold findfont
    dup length dict begin
	{1 index /FID ne {def} {pop pop} ifelse} forall
	/Encoding isolatin1encoding def
    currentdict end
definefont pop
/Times-BoldItalic-latin1
    /Times-BoldItalic findfont
    dup length dict begin
	{1 index /FID ne {def} {pop pop} ifelse} forall
	/Encoding isolatin1encoding def
    currentdict end
definefont pop
/AvantGarde-Gothic-latin1
    /AvantGarde-Gothic findfont
    dup length dict begin
	{1 index /FID ne {def} {pop pop} ifelse} forall
	/Encoding isolatin1encoding def
    currentdict end
definefont pop
/AvantGarde-BookOblique-latin1
    /AvantGarde-BookOblique findfont
    dup length dict begin
	{1 index /FID ne {def} {pop pop} ifelse} forall
	/Encoding isolatin1encoding def
    currentdict end
definefont pop
/AvantGarde-Demi-latin1
    /AvantGarde-Demi findfont
    dup length dict begin
	{1 index /FID ne {def} {pop pop} ifelse} forall
	/Encoding isolatin1encoding def
    currentdict end
definefont pop
/AvantGarde-DemiOblique-latin1
    /AvantGarde-DemiOblique findfont
    dup length dict begin
	{1 index /FID ne {def} {pop pop} ifelse} forall
	/Encoding isolatin1encoding def
    currentdict end
definefont pop
/Bookman-Light-latin1
    /Bookman-Light findfont
    dup length dict begin
	{1 index /FID ne {def} {pop pop} ifelse} forall
	/Encoding isolatin1encoding def
    currentdict end
definefont pop
/Bookman-LightItalic-latin1
    /Bookman-LightItalic findfont
    dup length dict begin
	{1 index /FID ne {def} {pop pop} ifelse} forall
	/Encoding isolatin1encoding def
    currentdict end
definefont pop
/Bookman-Demi-latin1
    /Bookman-Demi findfont
    dup length dict begin
	{1 index /FID ne {def} {pop pop} ifelse} forall
	/Encoding isolatin1encoding def
    currentdict end
definefont pop
/Bookman-DemiItalic-latin1
    /Bookman-DemiItalic findfont
    dup length dict begin
	{1 index /FID ne {def} {pop pop} ifelse} forall
	/Encoding isolatin1encoding def
    currentdict end
definefont pop
/Courier-latin1
    /Courier findfont
    dup length dict begin
	{1 index /FID ne {def} {pop pop} ifelse} forall
	/Encoding isolatin1encoding def
    currentdict end
definefont pop
/Courier-Oblique-latin1
    /Courier-Oblique findfont
    dup length dict begin
	{1 index /FID ne {def} {pop pop} ifelse} forall
	/Encoding isolatin1encoding def
    currentdict end
definefont pop
/Courier-Bold-latin1
    /Courier-Bold findfont
    dup length dict begin
	{1 index /FID ne {def} {pop pop} ifelse} forall
	/Encoding isolatin1encoding def
    currentdict end
definefont pop
/Courier-BoldOblique-latin1
    /Courier-BoldOblique findfont
    dup length dict begin
	{1 index /FID ne {def} {pop pop} ifelse} forall
	/Encoding isolatin1encoding def
    currentdict end
definefont pop
/Helvetica-latin1
    /Helvetica findfont
    dup length dict begin
	{1 index /FID ne {def} {pop pop} ifelse} forall
	/Encoding isolatin1encoding def
    currentdict end
definefont pop
/Helvetica-Oblique-latin1
    /Helvetica-Oblique findfont
    dup length dict begin
	{1 index /FID ne {def} {pop pop} ifelse} forall
	/Encoding isolatin1encoding def
    currentdict end
definefont pop
/Helvetica-Bold-latin1
    /Helvetica-Bold findfont
    dup length dict begin
	{1 index /FID ne {def} {pop pop} ifelse} forall
	/Encoding isolatin1encoding def
    currentdict end
definefont pop
/Helvetica-BoldOblique-latin1
    /Helvetica-BoldOblique findfont
    dup length dict begin
	{1 index /FID ne {def} {pop pop} ifelse} forall
	/Encoding isolatin1encoding def
    currentdict end
definefont pop
/Helvetica-Narrow-latin1
    /Helvetica-Narrow findfont
    dup length dict begin
	{1 index /FID ne {def} {pop pop} ifelse} forall
	/Encoding isolatin1encoding def
    currentdict end
definefont pop
/Helvetica-Narrow-Oblique-latin1
    /Helvetica-Narrow-Oblique findfont
    dup length dict begin
	{1 index /FID ne {def} {pop pop} ifelse} forall
	/Encoding isolatin1encoding def
    currentdict end
definefont pop
/Helvetica-Narrow-Bold-latin1
    /Helvetica-Narrow-Bold findfont
    dup length dict begin
	{1 index /FID ne {def} {pop pop} ifelse} forall
	/Encoding isolatin1encoding def
    currentdict end
definefont pop
/Helvetica-Narrow-BoldOblique-latin1
    /Helvetica-Narrow-BoldOblique findfont
    dup length dict begin
	{1 index /FID ne {def} {pop pop} ifelse} forall
	/Encoding isolatin1encoding def
    currentdict end
definefont pop
/NewCenturySchlbk-Roman-latin1
    /NewCenturySchlbk-Roman findfont
    dup length dict begin
	{1 index /FID ne {def} {pop pop} ifelse} forall
	/Encoding isolatin1encoding def
    currentdict end
definefont pop
/NewCenturySchlbk-Italic-latin1
    /NewCenturySchlbk-Italic findfont
    dup length dict begin
	{1 index /FID ne {def} {pop pop} ifelse} forall
	/Encoding isolatin1encoding def
    currentdict end
definefont pop
/NewCenturySchlbk-Bold-latin1
    /NewCenturySchlbk-Bold findfont
    dup length dict begin
	{1 index /FID ne {def} {pop pop} ifelse} forall
	/Encoding isolatin1encoding def
    currentdict end
definefont pop
/NewCenturySchlbk-BoldItalic-latin1
    /NewCenturySchlbk-BoldItalic findfont
    dup length dict begin
	{1 index /FID ne {def} {pop pop} ifelse} forall
	/Encoding isolatin1encoding def
    currentdict end
definefont pop
/Palatino-Roman-latin1
    /Palatino-Roman findfont
    dup length dict begin
	{1 index /FID ne {def} {pop pop} ifelse} forall
	/Encoding isolatin1encoding def
    currentdict end
definefont pop
/Palatino-Italic-latin1
    /Palatino-Italic findfont
    dup length dict begin
	{1 index /FID ne {def} {pop pop} ifelse} forall
	/Encoding isolatin1encoding def
    currentdict end
definefont pop
/Palatino-Bold-latin1
    /Palatino-Bold findfont
    dup length dict begin
	{1 index /FID ne {def} {pop pop} ifelse} forall
	/Encoding isolatin1encoding def
    currentdict end
definefont pop
/Palatino-BoldItalic-latin1
    /Palatino-BoldItalic findfont
    dup length dict begin
	{1 index /FID ne {def} {pop pop} ifelse} forall
	/Encoding isolatin1encoding def
    currentdict end
definefont pop
/Symbol-latin1
    /Symbol findfont
definefont pop
/ZapfChancery-MediumItalic-latin1
    /ZapfChancery-MediumItalic findfont
    dup length dict begin
	{1 index /FID ne {def} {pop pop} ifelse} forall
	/Encoding isolatin1encoding def
    currentdict end
definefont pop
/ZapfDingbats-latin1
    /ZapfDingbats findfont
    dup length dict begin
	{1 index /FID ne {def} {pop pop} ifelse} forall
	/Encoding isolatin1encoding def
    currentdict end
definefont pop
28.346000 -28.346000 scale
-9.950000 -34.950000 translate
%%EndProlog


1.000000 1.000000 1.000000 srgb
n 10.000000 16.500000 m 10.000000 18.500000 l 18.000000 18.500000 l 18.000000 16.500000 l f
0.100000 slw
[] 0 sd
[] 0 sd
0 slj
0.000000 0.000000 0.000000 srgb
n 10.000000 16.500000 m 10.000000 18.500000 l 18.000000 18.500000 l 18.000000 16.500000 l cp s
/Helvetica-latin1 ff 0.560000 scf sf
(BPM) dup sw 2 div 14.000000 ex sub 17.545000 m
 gs 1 -1 sc sh gr
1.000000 1.000000 1.000000 srgb
n 10.000000 11.500000 m 10.000000 13.500000 l 18.000000 13.500000 l 18.000000 11.500000 l f
0.100000 slw
[] 0 sd
[] 0 sd
0 slj
0.000000 0.000000 0.000000 srgb
n 10.000000 11.500000 m 10.000000 13.500000 l 18.000000 13.500000 l 18.000000 11.500000 l cp s
(SPEC) dup sw 2 div 14.000000 ex sub 12.545000 m
 gs 1 -1 sc sh gr
1.000000 1.000000 1.000000 srgb
n 21.000000 11.000000 m 21.000000 14.000000 l 29.000000 14.000000 l 29.000000 11.000000 l f
0.100000 slw
[] 0 sd
[] 0 sd
0 slj
0.000000 0.000000 0.000000 srgb
n 21.000000 11.000000 m 21.000000 14.000000 l 29.000000 14.000000 l 29.000000 11.000000 l cp s
(Driver RAM) dup sw 2 div 25.000000 ex sub 12.145000 m
 gs 1 -1 sc sh gr
(\(small\)) dup sw 2 div 25.000000 ex sub 12.945000 m
 gs 1 -1 sc sh gr
1.000000 1.000000 1.000000 srgb
n 32.000000 13.000000 m 32.000000 15.000000 l 40.000000 15.000000 l 40.000000 13.000000 l f
0.100000 slw
[] 0 sd
[] 0 sd
0 slj
0.000000 0.000000 0.000000 srgb
n 32.000000 13.000000 m 32.000000 15.000000 l 40.000000 15.000000 l 40.000000 13.000000 l cp s
(ObsBox) dup sw 2 div 36.000000 ex sub 14.045000 m
 gs 1 -1 sc sh gr
1.000000 1.000000 1.000000 srgb
n 21.000000 14.000000 m 21.000000 29.000000 l 29.000000 29.000000 l 29.000000 14.000000 l f
0.100000 slw
[] 0 sd
[] 0 sd
0 slj
0.000000 0.000000 0.000000 srgb
n 21.000000 14.000000 m 21.000000 29.000000 l 29.000000 29.000000 l 29.000000 14.000000 l cp s
(ObsBox RAM) dup sw 2 div 25.000000 ex sub 21.145000 m
 gs 1 -1 sc sh gr
(\(6min circular buffer\)) dup sw 2 div 25.000000 ex sub 21.945000 m
 gs 1 -1 sc sh gr
1.000000 1.000000 1.000000 srgb
n 21.000000 29.000000 m 21.000000 31.000000 l 29.000000 31.000000 l 29.000000 29.000000 l f
0.100000 slw
[] 0 sd
[] 0 sd
0 slj
0.000000 0.000000 0.000000 srgb
n 21.000000 29.000000 m 21.000000 31.000000 l 29.000000 31.000000 l 29.000000 29.000000 l cp s
(4096 turn buffer) dup sw 2 div 25.000000 ex sub 30.045000 m
 gs 1 -1 sc sh gr
1.000000 1.000000 1.000000 srgb
n 32.000000 28.000000 m 32.000000 30.000000 l 40.000000 30.000000 l 40.000000 28.000000 l f
0.100000 slw
[] 0 sd
[] 0 sd
0 slj
0.000000 0.000000 0.000000 srgb
n 32.000000 28.000000 m 32.000000 30.000000 l 40.000000 30.000000 l 40.000000 28.000000 l cp s
(ObsBoxBuffer) dup sw 2 div 36.000000 ex sub 29.045000 m
 gs 1 -1 sc sh gr
1.000000 1.000000 1.000000 srgb
n 32.000000 23.000000 m 32.000000 25.000000 l 40.000000 25.000000 l 40.000000 23.000000 l f
0.100000 slw
[] 0 sd
[] 0 sd
0 slj
0.000000 0.000000 0.000000 srgb
n 32.000000 23.000000 m 32.000000 25.000000 l 40.000000 25.000000 l 40.000000 23.000000 l cp s
(Timing Card) dup sw 2 div 36.000000 ex sub 24.045000 m
 gs 1 -1 sc sh gr
1.000000 1.000000 1.000000 srgb
n 10.000000 21.500000 m 10.000000 23.500000 l 18.000000 23.500000 l 18.000000 21.500000 l f
0.100000 slw
[] 0 sd
[] 0 sd
0 slj
0.000000 0.000000 0.000000 srgb
n 10.000000 21.500000 m 10.000000 23.500000 l 18.000000 23.500000 l 18.000000 21.500000 l cp s
(Pickup) dup sw 2 div 14.000000 ex sub 22.545000 m
 gs 1 -1 sc sh gr
0.100000 slw
[] 0 sd
[] 0 sd
0 slc
n 14.000000 21.500000 m 14.000000 18.723607 l s
0.100000 slw
[] 0 sd
0 slj
0 slc
n 14.250000 19.111803 m 14.000000 18.611803 l 13.750000 19.111803 l s
( Coaxial cable) 14.000000 20.050000 m
 gs 1 -1 sc sh gr
0.100000 slw
[] 0 sd
[] 0 sd
0 slc
n 14.000000 16.449890 m 14.000000 13.773717 l s
0.100000 slw
[] 0 sd
0 slj
0 slc
n 14.250000 14.161913 m 14.000000 13.661913 l 13.750000 14.161913 l s
( Fiber-optic cable) 14.000000 15.050000 m
 gs 1 -1 sc sh gr
0.100000 slw
[] 0 sd
[] 0 sd
0 slc
n 18.050140 12.500000 m 20.726253 12.500000 l s
0.100000 slw
[] 0 sd
0 slj
0 slc
n 20.338056 12.750000 m 20.838056 12.500000 l 20.338056 12.250000 l s
(DMA) 18.700000 11.950000 m
 gs 1 -1 sc sh gr
0.100000 slw
[] 0 sd
[] 0 sd
0 slj
0 slc
n 29.100000 13.000000 m 30.499506 13.000000 l 30.499506 13.600000 l 31.675404 13.600000 l s
0.100000 slw
[] 0 sd
0 slj
0 slc
n 31.287208 13.850000 m 31.787208 13.600000 l 31.287208 13.350000 l s
0.100000 slw
[] 0 sd
[] 0 sd
0 slj
0 slc
n 32.000000 14.400000 m 30.550000 14.400000 l 30.550000 15.000000 l 29.323607 15.000000 l s
0.100000 slw
[] 0 sd
0 slj
0 slc
n 29.711803 14.750000 m 29.211803 15.000000 l 29.711803 15.250000 l s
(External Trigger) 37.000000 20.850000 m
 gs 1 -1 sc sh gr
0.100000 slw
[] 0 sd
[] 0 sd
0 slc
n 36.000000 25.050110 m 36.000000 27.726283 l s
0.100000 slw
[] 0 sd
0 slj
0 slc
n 35.750000 27.338087 m 36.000000 27.838087 l 36.250000 27.338087 l s
( Real-time event) 36.000000 26.350000 m
 gs 1 -1 sc sh gr
0.100000 slw
[] 0 sd
[] 0 sd
0 slj
0 slc
n 29.100000 28.000000 m 30.500000 28.000000 l 30.500000 28.600000 l 31.676393 28.600000 l s
0.100000 slw
[] 0 sd
0 slj
0 slc
n 31.288197 28.850000 m 31.788197 28.600000 l 31.288197 28.350000 l s
0.100000 slw
[] 0 sd
[] 0 sd
0 slj
0 slc
n 31.900000 29.400000 m 30.500000 29.400000 l 30.500000 30.000000 l 29.323607 30.000000 l s
0.100000 slw
[] 0 sd
0 slj
0 slc
n 29.711803 29.750000 m 29.211803 30.000000 l 29.711803 30.250000 l s
0.100000 slw
[] 0 sd
[] 0 sd
0 slj
0 slc
n 36.800000 20.800000 m 36.800000 20.800000 l 36.000000 20.800000 l 36.000000 22.776393 l s
0.100000 slw
[] 0 sd
0 slj
0 slc
n 35.750000 22.388197 m 36.000000 22.888197 l 36.250000 22.388197 l s
1.000000 1.000000 1.000000 srgb
n 32.000000 33.000000 m 32.000000 34.900000 l 40.000000 34.900000 l 40.000000 33.000000 l f
0.100000 slw
[] 0 sd
[] 0 sd
0 slj
0.000000 0.000000 0.000000 srgb
n 32.000000 33.000000 m 32.000000 34.900000 l 40.000000 34.900000 l 40.000000 33.000000 l cp s
(CMW) dup sw 2 div 36.000000 ex sub 33.995000 m
 gs 1 -1 sc sh gr
0.100000 slw
[] 0 sd
[] 0 sd
0 slc
n 36.000000 30.049579 m 36.000000 32.728175 l s
0.100000 slw
[] 0 sd
0 slj
0 slc
n 35.750000 32.339979 m 36.000000 32.839979 l 36.250000 32.339979 l s
showpage
