%!PS-Adobe-2.0 EPSF-2.0
%%Title: /home/msoderen/repositories/masterthesis/figures/pipeline.dia
%%Creator: Dia v0.97.3
%%CreationDate: Wed Sep 27 17:43:49 2017
%%For: msoderen
%%Orientation: Portrait
%%Magnification: 1.0000
%%BoundingBox: 0 0 772 278
%%BeginSetup
%%EndSetup
%%EndComments
%%BeginProlog
[ /.notdef /.notdef /.notdef /.notdef /.notdef /.notdef /.notdef /.notdef /.notdef /.notdef
/.notdef /.notdef /.notdef /.notdef /.notdef /.notdef /.notdef /.notdef /.notdef /.notdef
/.notdef /.notdef /.notdef /.notdef /.notdef /.notdef /.notdef /.notdef /.notdef /.notdef
/.notdef /.notdef /space /exclam /quotedbl /numbersign /dollar /percent /ampersand /quoteright
/parenleft /parenright /asterisk /plus /comma /hyphen /period /slash /zero /one
/two /three /four /five /six /seven /eight /nine /colon /semicolon
/less /equal /greater /question /at /A /B /C /D /E
/F /G /H /I /J /K /L /M /N /O
/P /Q /R /S /T /U /V /W /X /Y
/Z /bracketleft /backslash /bracketright /asciicircum /underscore /quoteleft /a /b /c
/d /e /f /g /h /i /j /k /l /m
/n /o /p /q /r /s /t /u /v /w
/x /y /z /braceleft /bar /braceright /asciitilde /.notdef /.notdef /.notdef
/.notdef /.notdef /.notdef /.notdef /.notdef /.notdef /.notdef /.notdef /.notdef /.notdef
/.notdef /.notdef /.notdef /.notdef /.notdef /.notdef /.notdef /.notdef /.notdef /.notdef
/.notdef /.notdef /.notdef /.notdef /.notdef /.notdef /.notdef /.notdef /.notdef /.notdef
/space /exclamdown /cent /sterling /currency /yen /brokenbar /section /dieresis /copyright
/ordfeminine /guillemotleft /logicalnot /hyphen /registered /macron /degree /plusminus /twosuperior /threesuperior
/acute /mu /paragraph /periodcentered /cedilla /onesuperior /ordmasculine /guillemotright /onequarter /onehalf
/threequarters /questiondown /Agrave /Aacute /Acircumflex /Atilde /Adieresis /Aring /AE /Ccedilla
/Egrave /Eacute /Ecircumflex /Edieresis /Igrave /Iacute /Icircumflex /Idieresis /Eth /Ntilde
/Ograve /Oacute /Ocircumflex /Otilde /Odieresis /multiply /Oslash /Ugrave /Uacute /Ucircumflex
/Udieresis /Yacute /Thorn /germandbls /agrave /aacute /acircumflex /atilde /adieresis /aring
/ae /ccedilla /egrave /eacute /ecircumflex /edieresis /igrave /iacute /icircumflex /idieresis
/eth /ntilde /ograve /oacute /ocircumflex /otilde /odieresis /divide /oslash /ugrave
/uacute /ucircumflex /udieresis /yacute /thorn /ydieresis] /isolatin1encoding exch def
/cp {closepath} bind def
/c {curveto} bind def
/f {fill} bind def
/a {arc} bind def
/ef {eofill} bind def
/ex {exch} bind def
/gr {grestore} bind def
/gs {gsave} bind def
/sa {save} bind def
/rs {restore} bind def
/l {lineto} bind def
/m {moveto} bind def
/rm {rmoveto} bind def
/n {newpath} bind def
/s {stroke} bind def
/sh {show} bind def
/slc {setlinecap} bind def
/slj {setlinejoin} bind def
/slw {setlinewidth} bind def
/srgb {setrgbcolor} bind def
/rot {rotate} bind def
/sc {scale} bind def
/sd {setdash} bind def
/ff {findfont} bind def
/sf {setfont} bind def
/scf {scalefont} bind def
/sw {stringwidth pop} bind def
/tr {translate} bind def

/ellipsedict 8 dict def
ellipsedict /mtrx matrix put
/ellipse
{ ellipsedict begin
   /endangle exch def
   /startangle exch def
   /yrad exch def
   /xrad exch def
   /y exch def
   /x exch def   /savematrix mtrx currentmatrix def
   x y tr xrad yrad sc
   0 0 1 startangle endangle arc
   savematrix setmatrix
   end
} def

/mergeprocs {
dup length
3 -1 roll
dup
length
dup
5 1 roll
3 -1 roll
add
array cvx
dup
3 -1 roll
0 exch
putinterval
dup
4 2 roll
putinterval
} bind def
/Times-Roman-latin1
    /Times-Roman findfont
    dup length dict begin
	{1 index /FID ne {def} {pop pop} ifelse} forall
	/Encoding isolatin1encoding def
    currentdict end
definefont pop
/Times-Italic-latin1
    /Times-Italic findfont
    dup length dict begin
	{1 index /FID ne {def} {pop pop} ifelse} forall
	/Encoding isolatin1encoding def
    currentdict end
definefont pop
/Times-Bold-latin1
    /Times-Bold findfont
    dup length dict begin
	{1 index /FID ne {def} {pop pop} ifelse} forall
	/Encoding isolatin1encoding def
    currentdict end
definefont pop
/Times-BoldItalic-latin1
    /Times-BoldItalic findfont
    dup length dict begin
	{1 index /FID ne {def} {pop pop} ifelse} forall
	/Encoding isolatin1encoding def
    currentdict end
definefont pop
/AvantGarde-Gothic-latin1
    /AvantGarde-Gothic findfont
    dup length dict begin
	{1 index /FID ne {def} {pop pop} ifelse} forall
	/Encoding isolatin1encoding def
    currentdict end
definefont pop
/AvantGarde-BookOblique-latin1
    /AvantGarde-BookOblique findfont
    dup length dict begin
	{1 index /FID ne {def} {pop pop} ifelse} forall
	/Encoding isolatin1encoding def
    currentdict end
definefont pop
/AvantGarde-Demi-latin1
    /AvantGarde-Demi findfont
    dup length dict begin
	{1 index /FID ne {def} {pop pop} ifelse} forall
	/Encoding isolatin1encoding def
    currentdict end
definefont pop
/AvantGarde-DemiOblique-latin1
    /AvantGarde-DemiOblique findfont
    dup length dict begin
	{1 index /FID ne {def} {pop pop} ifelse} forall
	/Encoding isolatin1encoding def
    currentdict end
definefont pop
/Bookman-Light-latin1
    /Bookman-Light findfont
    dup length dict begin
	{1 index /FID ne {def} {pop pop} ifelse} forall
	/Encoding isolatin1encoding def
    currentdict end
definefont pop
/Bookman-LightItalic-latin1
    /Bookman-LightItalic findfont
    dup length dict begin
	{1 index /FID ne {def} {pop pop} ifelse} forall
	/Encoding isolatin1encoding def
    currentdict end
definefont pop
/Bookman-Demi-latin1
    /Bookman-Demi findfont
    dup length dict begin
	{1 index /FID ne {def} {pop pop} ifelse} forall
	/Encoding isolatin1encoding def
    currentdict end
definefont pop
/Bookman-DemiItalic-latin1
    /Bookman-DemiItalic findfont
    dup length dict begin
	{1 index /FID ne {def} {pop pop} ifelse} forall
	/Encoding isolatin1encoding def
    currentdict end
definefont pop
/Courier-latin1
    /Courier findfont
    dup length dict begin
	{1 index /FID ne {def} {pop pop} ifelse} forall
	/Encoding isolatin1encoding def
    currentdict end
definefont pop
/Courier-Oblique-latin1
    /Courier-Oblique findfont
    dup length dict begin
	{1 index /FID ne {def} {pop pop} ifelse} forall
	/Encoding isolatin1encoding def
    currentdict end
definefont pop
/Courier-Bold-latin1
    /Courier-Bold findfont
    dup length dict begin
	{1 index /FID ne {def} {pop pop} ifelse} forall
	/Encoding isolatin1encoding def
    currentdict end
definefont pop
/Courier-BoldOblique-latin1
    /Courier-BoldOblique findfont
    dup length dict begin
	{1 index /FID ne {def} {pop pop} ifelse} forall
	/Encoding isolatin1encoding def
    currentdict end
definefont pop
/Helvetica-latin1
    /Helvetica findfont
    dup length dict begin
	{1 index /FID ne {def} {pop pop} ifelse} forall
	/Encoding isolatin1encoding def
    currentdict end
definefont pop
/Helvetica-Oblique-latin1
    /Helvetica-Oblique findfont
    dup length dict begin
	{1 index /FID ne {def} {pop pop} ifelse} forall
	/Encoding isolatin1encoding def
    currentdict end
definefont pop
/Helvetica-Bold-latin1
    /Helvetica-Bold findfont
    dup length dict begin
	{1 index /FID ne {def} {pop pop} ifelse} forall
	/Encoding isolatin1encoding def
    currentdict end
definefont pop
/Helvetica-BoldOblique-latin1
    /Helvetica-BoldOblique findfont
    dup length dict begin
	{1 index /FID ne {def} {pop pop} ifelse} forall
	/Encoding isolatin1encoding def
    currentdict end
definefont pop
/Helvetica-Narrow-latin1
    /Helvetica-Narrow findfont
    dup length dict begin
	{1 index /FID ne {def} {pop pop} ifelse} forall
	/Encoding isolatin1encoding def
    currentdict end
definefont pop
/Helvetica-Narrow-Oblique-latin1
    /Helvetica-Narrow-Oblique findfont
    dup length dict begin
	{1 index /FID ne {def} {pop pop} ifelse} forall
	/Encoding isolatin1encoding def
    currentdict end
definefont pop
/Helvetica-Narrow-Bold-latin1
    /Helvetica-Narrow-Bold findfont
    dup length dict begin
	{1 index /FID ne {def} {pop pop} ifelse} forall
	/Encoding isolatin1encoding def
    currentdict end
definefont pop
/Helvetica-Narrow-BoldOblique-latin1
    /Helvetica-Narrow-BoldOblique findfont
    dup length dict begin
	{1 index /FID ne {def} {pop pop} ifelse} forall
	/Encoding isolatin1encoding def
    currentdict end
definefont pop
/NewCenturySchlbk-Roman-latin1
    /NewCenturySchlbk-Roman findfont
    dup length dict begin
	{1 index /FID ne {def} {pop pop} ifelse} forall
	/Encoding isolatin1encoding def
    currentdict end
definefont pop
/NewCenturySchlbk-Italic-latin1
    /NewCenturySchlbk-Italic findfont
    dup length dict begin
	{1 index /FID ne {def} {pop pop} ifelse} forall
	/Encoding isolatin1encoding def
    currentdict end
definefont pop
/NewCenturySchlbk-Bold-latin1
    /NewCenturySchlbk-Bold findfont
    dup length dict begin
	{1 index /FID ne {def} {pop pop} ifelse} forall
	/Encoding isolatin1encoding def
    currentdict end
definefont pop
/NewCenturySchlbk-BoldItalic-latin1
    /NewCenturySchlbk-BoldItalic findfont
    dup length dict begin
	{1 index /FID ne {def} {pop pop} ifelse} forall
	/Encoding isolatin1encoding def
    currentdict end
definefont pop
/Palatino-Roman-latin1
    /Palatino-Roman findfont
    dup length dict begin
	{1 index /FID ne {def} {pop pop} ifelse} forall
	/Encoding isolatin1encoding def
    currentdict end
definefont pop
/Palatino-Italic-latin1
    /Palatino-Italic findfont
    dup length dict begin
	{1 index /FID ne {def} {pop pop} ifelse} forall
	/Encoding isolatin1encoding def
    currentdict end
definefont pop
/Palatino-Bold-latin1
    /Palatino-Bold findfont
    dup length dict begin
	{1 index /FID ne {def} {pop pop} ifelse} forall
	/Encoding isolatin1encoding def
    currentdict end
definefont pop
/Palatino-BoldItalic-latin1
    /Palatino-BoldItalic findfont
    dup length dict begin
	{1 index /FID ne {def} {pop pop} ifelse} forall
	/Encoding isolatin1encoding def
    currentdict end
definefont pop
/Symbol-latin1
    /Symbol findfont
definefont pop
/ZapfChancery-MediumItalic-latin1
    /ZapfChancery-MediumItalic findfont
    dup length dict begin
	{1 index /FID ne {def} {pop pop} ifelse} forall
	/Encoding isolatin1encoding def
    currentdict end
definefont pop
/ZapfDingbats-latin1
    /ZapfDingbats findfont
    dup length dict begin
	{1 index /FID ne {def} {pop pop} ifelse} forall
	/Encoding isolatin1encoding def
    currentdict end
definefont pop
28.346000 -28.346000 scale
34.850000 -4.350000 translate
%%EndProlog


1.000000 1.000000 1.000000 srgb
n -34.800000 -5.300000 m -34.800000 -1.000000 l -26.487500 -1.000000 l -26.487500 -5.300000 l f
0.100000 slw
[] 0 sd
[] 0 sd
0 slj
0.000000 0.000000 0.000000 srgb
n -34.800000 -5.300000 m -34.800000 -1.000000 l -26.487500 -1.000000 l -26.487500 -5.300000 l cp s
/Helvetica-latin1 ff 0.740833 scf sf
(Real-time action/) dup sw 2 div -30.643750 ex sub -4.161667 m
 gs 1 -1 sc sh gr
(serialization/) dup sw 2 div -30.643750 ex sub -3.103333 m
 gs 1 -1 sc sh gr
(float conversion) dup sw 2 div -30.643750 ex sub -2.045000 m
 gs 1 -1 sc sh gr
1.000000 1.000000 1.000000 srgb
n -34.800000 0.000000 m -34.800000 4.300000 l -26.500000 4.300000 l -26.500000 0.000000 l f
0.100000 slw
[] 0 sd
[] 0 sd
0 slj
0.000000 0.000000 0.000000 srgb
n -34.800000 0.000000 m -34.800000 4.300000 l -26.500000 4.300000 l -26.500000 0.000000 l cp s
/Helvetica-latin1 ff 0.740833 scf sf
(Notch) dup sw 2 div -30.650000 ex sub 2.196667 m
 gs 1 -1 sc sh gr
1.000000 1.000000 1.000000 srgb
n -25.500000 0.000000 m -25.500000 4.300000 l -17.130000 4.300000 l -17.130000 0.000000 l f
0.100000 slw
[] 0 sd
[] 0 sd
0 slj
0.000000 0.000000 0.000000 srgb
n -25.500000 0.000000 m -25.500000 4.300000 l -17.130000 4.300000 l -17.130000 0.000000 l cp s
/Helvetica-latin1 ff 0.740833 scf sf
(Hilbert transform) dup sw 2 div -21.315000 ex sub 2.196667 m
 gs 1 -1 sc sh gr
1.000000 1.000000 1.000000 srgb
n -25.500000 -5.300000 m -25.500000 -1.000000 l -17.100000 -1.000000 l -17.100000 -5.300000 l f
0.100000 slw
[] 0 sd
[] 0 sd
0 slj
0.000000 0.000000 0.000000 srgb
n -25.500000 -5.300000 m -25.500000 -1.000000 l -17.100000 -1.000000 l -17.100000 -5.300000 l cp s
/Helvetica-latin1 ff 0.740833 scf sf
(Instantaneous) dup sw 2 div -21.300000 ex sub -3.632500 m
 gs 1 -1 sc sh gr
(amplitude) dup sw 2 div -21.300000 ex sub -2.574167 m
 gs 1 -1 sc sh gr
1.000000 1.000000 1.000000 srgb
n -16.100000 -5.400000 m -16.100000 -1.000000 l -7.700000 -1.000000 l -7.700000 -5.400000 l f
0.100000 slw
[] 0 sd
[] 0 sd
0 slj
0.000000 0.000000 0.000000 srgb
n -16.100000 -5.400000 m -16.100000 -1.000000 l -7.700000 -1.000000 l -7.700000 -5.400000 l cp s
/Helvetica-latin1 ff 0.740833 scf sf
(Instability) dup sw 2 div -11.900000 ex sub -3.682500 m
 gs 1 -1 sc sh gr
(detection) dup sw 2 div -11.900000 ex sub -2.624167 m
 gs 1 -1 sc sh gr
0.100000 slw
[] 0 sd
[] 0 sd
0 slc
n -30.646344 -0.949969 m -30.647142 -0.273637 l s
0.100000 slw
[] 0 sd
0 slj
0 slc
n -30.896684 -0.662128 m -30.647274 -0.161834 l -30.396684 -0.661539 l s
0.100000 slw
[] 0 sd
[] 0 sd
0 slc
n -26.450845 2.150000 m -25.773657 2.150000 l s
0.100000 slw
[] 0 sd
0 slj
0 slc
n -26.161853 2.400000 m -25.661853 2.150000 l -26.161853 1.900000 l s
0.100000 slw
[] 0 sd
[] 0 sd
0 slc
n -21.308773 -0.050031 m -21.306859 -0.726364 l s
0.100000 slw
[] 0 sd
0 slj
0 slc
n -21.057959 -0.337461 m -21.306543 -0.838167 l -21.557957 -0.338876 l s
0.100000 slw
[] 0 sd
[] 0 sd
0 slc
n -17.054395 -3.172583 m -16.369209 -3.176228 l s
0.100000 slw
[] 0 sd
0 slj
0 slc
n -16.756070 -2.924166 m -16.257407 -3.176822 l -16.758730 -3.424159 l s
1.000000 1.000000 1.000000 srgb
n -16.100000 0.000000 m -16.100000 4.300000 l -7.700000 4.300000 l -7.700000 0.000000 l f
0.100000 slw
[] 0 sd
[] 0 sd
0 slj
0.000000 0.000000 0.000000 srgb
n -16.100000 0.000000 m -16.100000 4.300000 l -7.700000 4.300000 l -7.700000 0.000000 l cp s
/Helvetica-latin1 ff 0.740833 scf sf
(LIST) dup sw 2 div -11.900000 ex sub 2.196667 m
 gs 1 -1 sc sh gr
0.100000 slw
[0.200000] 0 sd
[0.200000] 0 sd
0 slc
n -11.900000 -0.950153 m -11.900000 -0.273820 l s
0.100000 slw
[] 0 sd
0 slj
0 slc
n -12.150000 -0.662017 m -11.900000 -0.162017 l -11.650000 -0.662017 l s
showpage
