%!PS-Adobe-2.0 EPSF-2.0
%%Title: /home/msoderen/repositories/masterthesis/figures/Diagram1.dia
%%Creator: Dia v0.97.3
%%CreationDate: Tue Aug  8 18:28:32 2017
%%For: msoderen
%%Orientation: Portrait
%%Magnification: 1.0000
%%BoundingBox: 0 0 457 145
%%BeginSetup
%%EndSetup
%%EndComments
%%BeginProlog
[ /.notdef /.notdef /.notdef /.notdef /.notdef /.notdef /.notdef /.notdef /.notdef /.notdef
/.notdef /.notdef /.notdef /.notdef /.notdef /.notdef /.notdef /.notdef /.notdef /.notdef
/.notdef /.notdef /.notdef /.notdef /.notdef /.notdef /.notdef /.notdef /.notdef /.notdef
/.notdef /.notdef /space /exclam /quotedbl /numbersign /dollar /percent /ampersand /quoteright
/parenleft /parenright /asterisk /plus /comma /hyphen /period /slash /zero /one
/two /three /four /five /six /seven /eight /nine /colon /semicolon
/less /equal /greater /question /at /A /B /C /D /E
/F /G /H /I /J /K /L /M /N /O
/P /Q /R /S /T /U /V /W /X /Y
/Z /bracketleft /backslash /bracketright /asciicircum /underscore /quoteleft /a /b /c
/d /e /f /g /h /i /j /k /l /m
/n /o /p /q /r /s /t /u /v /w
/x /y /z /braceleft /bar /braceright /asciitilde /.notdef /.notdef /.notdef
/.notdef /.notdef /.notdef /.notdef /.notdef /.notdef /.notdef /.notdef /.notdef /.notdef
/.notdef /.notdef /.notdef /.notdef /.notdef /.notdef /.notdef /.notdef /.notdef /.notdef
/.notdef /.notdef /.notdef /.notdef /.notdef /.notdef /.notdef /.notdef /.notdef /.notdef
/space /exclamdown /cent /sterling /currency /yen /brokenbar /section /dieresis /copyright
/ordfeminine /guillemotleft /logicalnot /hyphen /registered /macron /degree /plusminus /twosuperior /threesuperior
/acute /mu /paragraph /periodcentered /cedilla /onesuperior /ordmasculine /guillemotright /onequarter /onehalf
/threequarters /questiondown /Agrave /Aacute /Acircumflex /Atilde /Adieresis /Aring /AE /Ccedilla
/Egrave /Eacute /Ecircumflex /Edieresis /Igrave /Iacute /Icircumflex /Idieresis /Eth /Ntilde
/Ograve /Oacute /Ocircumflex /Otilde /Odieresis /multiply /Oslash /Ugrave /Uacute /Ucircumflex
/Udieresis /Yacute /Thorn /germandbls /agrave /aacute /acircumflex /atilde /adieresis /aring
/ae /ccedilla /egrave /eacute /ecircumflex /edieresis /igrave /iacute /icircumflex /idieresis
/eth /ntilde /ograve /oacute /ocircumflex /otilde /odieresis /divide /oslash /ugrave
/uacute /ucircumflex /udieresis /yacute /thorn /ydieresis] /isolatin1encoding exch def
/cp {closepath} bind def
/c {curveto} bind def
/f {fill} bind def
/a {arc} bind def
/ef {eofill} bind def
/ex {exch} bind def
/gr {grestore} bind def
/gs {gsave} bind def
/sa {save} bind def
/rs {restore} bind def
/l {lineto} bind def
/m {moveto} bind def
/rm {rmoveto} bind def
/n {newpath} bind def
/s {stroke} bind def
/sh {show} bind def
/slc {setlinecap} bind def
/slj {setlinejoin} bind def
/slw {setlinewidth} bind def
/srgb {setrgbcolor} bind def
/rot {rotate} bind def
/sc {scale} bind def
/sd {setdash} bind def
/ff {findfont} bind def
/sf {setfont} bind def
/scf {scalefont} bind def
/sw {stringwidth pop} bind def
/tr {translate} bind def

/ellipsedict 8 dict def
ellipsedict /mtrx matrix put
/ellipse
{ ellipsedict begin
   /endangle exch def
   /startangle exch def
   /yrad exch def
   /xrad exch def
   /y exch def
   /x exch def   /savematrix mtrx currentmatrix def
   x y tr xrad yrad sc
   0 0 1 startangle endangle arc
   savematrix setmatrix
   end
} def

/mergeprocs {
dup length
3 -1 roll
dup
length
dup
5 1 roll
3 -1 roll
add
array cvx
dup
3 -1 roll
0 exch
putinterval
dup
4 2 roll
putinterval
} bind def
/Times-Roman-latin1
    /Times-Roman findfont
    dup length dict begin
	{1 index /FID ne {def} {pop pop} ifelse} forall
	/Encoding isolatin1encoding def
    currentdict end
definefont pop
/Times-Italic-latin1
    /Times-Italic findfont
    dup length dict begin
	{1 index /FID ne {def} {pop pop} ifelse} forall
	/Encoding isolatin1encoding def
    currentdict end
definefont pop
/Times-Bold-latin1
    /Times-Bold findfont
    dup length dict begin
	{1 index /FID ne {def} {pop pop} ifelse} forall
	/Encoding isolatin1encoding def
    currentdict end
definefont pop
/Times-BoldItalic-latin1
    /Times-BoldItalic findfont
    dup length dict begin
	{1 index /FID ne {def} {pop pop} ifelse} forall
	/Encoding isolatin1encoding def
    currentdict end
definefont pop
/AvantGarde-Gothic-latin1
    /AvantGarde-Gothic findfont
    dup length dict begin
	{1 index /FID ne {def} {pop pop} ifelse} forall
	/Encoding isolatin1encoding def
    currentdict end
definefont pop
/AvantGarde-BookOblique-latin1
    /AvantGarde-BookOblique findfont
    dup length dict begin
	{1 index /FID ne {def} {pop pop} ifelse} forall
	/Encoding isolatin1encoding def
    currentdict end
definefont pop
/AvantGarde-Demi-latin1
    /AvantGarde-Demi findfont
    dup length dict begin
	{1 index /FID ne {def} {pop pop} ifelse} forall
	/Encoding isolatin1encoding def
    currentdict end
definefont pop
/AvantGarde-DemiOblique-latin1
    /AvantGarde-DemiOblique findfont
    dup length dict begin
	{1 index /FID ne {def} {pop pop} ifelse} forall
	/Encoding isolatin1encoding def
    currentdict end
definefont pop
/Bookman-Light-latin1
    /Bookman-Light findfont
    dup length dict begin
	{1 index /FID ne {def} {pop pop} ifelse} forall
	/Encoding isolatin1encoding def
    currentdict end
definefont pop
/Bookman-LightItalic-latin1
    /Bookman-LightItalic findfont
    dup length dict begin
	{1 index /FID ne {def} {pop pop} ifelse} forall
	/Encoding isolatin1encoding def
    currentdict end
definefont pop
/Bookman-Demi-latin1
    /Bookman-Demi findfont
    dup length dict begin
	{1 index /FID ne {def} {pop pop} ifelse} forall
	/Encoding isolatin1encoding def
    currentdict end
definefont pop
/Bookman-DemiItalic-latin1
    /Bookman-DemiItalic findfont
    dup length dict begin
	{1 index /FID ne {def} {pop pop} ifelse} forall
	/Encoding isolatin1encoding def
    currentdict end
definefont pop
/Courier-latin1
    /Courier findfont
    dup length dict begin
	{1 index /FID ne {def} {pop pop} ifelse} forall
	/Encoding isolatin1encoding def
    currentdict end
definefont pop
/Courier-Oblique-latin1
    /Courier-Oblique findfont
    dup length dict begin
	{1 index /FID ne {def} {pop pop} ifelse} forall
	/Encoding isolatin1encoding def
    currentdict end
definefont pop
/Courier-Bold-latin1
    /Courier-Bold findfont
    dup length dict begin
	{1 index /FID ne {def} {pop pop} ifelse} forall
	/Encoding isolatin1encoding def
    currentdict end
definefont pop
/Courier-BoldOblique-latin1
    /Courier-BoldOblique findfont
    dup length dict begin
	{1 index /FID ne {def} {pop pop} ifelse} forall
	/Encoding isolatin1encoding def
    currentdict end
definefont pop
/Helvetica-latin1
    /Helvetica findfont
    dup length dict begin
	{1 index /FID ne {def} {pop pop} ifelse} forall
	/Encoding isolatin1encoding def
    currentdict end
definefont pop
/Helvetica-Oblique-latin1
    /Helvetica-Oblique findfont
    dup length dict begin
	{1 index /FID ne {def} {pop pop} ifelse} forall
	/Encoding isolatin1encoding def
    currentdict end
definefont pop
/Helvetica-Bold-latin1
    /Helvetica-Bold findfont
    dup length dict begin
	{1 index /FID ne {def} {pop pop} ifelse} forall
	/Encoding isolatin1encoding def
    currentdict end
definefont pop
/Helvetica-BoldOblique-latin1
    /Helvetica-BoldOblique findfont
    dup length dict begin
	{1 index /FID ne {def} {pop pop} ifelse} forall
	/Encoding isolatin1encoding def
    currentdict end
definefont pop
/Helvetica-Narrow-latin1
    /Helvetica-Narrow findfont
    dup length dict begin
	{1 index /FID ne {def} {pop pop} ifelse} forall
	/Encoding isolatin1encoding def
    currentdict end
definefont pop
/Helvetica-Narrow-Oblique-latin1
    /Helvetica-Narrow-Oblique findfont
    dup length dict begin
	{1 index /FID ne {def} {pop pop} ifelse} forall
	/Encoding isolatin1encoding def
    currentdict end
definefont pop
/Helvetica-Narrow-Bold-latin1
    /Helvetica-Narrow-Bold findfont
    dup length dict begin
	{1 index /FID ne {def} {pop pop} ifelse} forall
	/Encoding isolatin1encoding def
    currentdict end
definefont pop
/Helvetica-Narrow-BoldOblique-latin1
    /Helvetica-Narrow-BoldOblique findfont
    dup length dict begin
	{1 index /FID ne {def} {pop pop} ifelse} forall
	/Encoding isolatin1encoding def
    currentdict end
definefont pop
/NewCenturySchlbk-Roman-latin1
    /NewCenturySchlbk-Roman findfont
    dup length dict begin
	{1 index /FID ne {def} {pop pop} ifelse} forall
	/Encoding isolatin1encoding def
    currentdict end
definefont pop
/NewCenturySchlbk-Italic-latin1
    /NewCenturySchlbk-Italic findfont
    dup length dict begin
	{1 index /FID ne {def} {pop pop} ifelse} forall
	/Encoding isolatin1encoding def
    currentdict end
definefont pop
/NewCenturySchlbk-Bold-latin1
    /NewCenturySchlbk-Bold findfont
    dup length dict begin
	{1 index /FID ne {def} {pop pop} ifelse} forall
	/Encoding isolatin1encoding def
    currentdict end
definefont pop
/NewCenturySchlbk-BoldItalic-latin1
    /NewCenturySchlbk-BoldItalic findfont
    dup length dict begin
	{1 index /FID ne {def} {pop pop} ifelse} forall
	/Encoding isolatin1encoding def
    currentdict end
definefont pop
/Palatino-Roman-latin1
    /Palatino-Roman findfont
    dup length dict begin
	{1 index /FID ne {def} {pop pop} ifelse} forall
	/Encoding isolatin1encoding def
    currentdict end
definefont pop
/Palatino-Italic-latin1
    /Palatino-Italic findfont
    dup length dict begin
	{1 index /FID ne {def} {pop pop} ifelse} forall
	/Encoding isolatin1encoding def
    currentdict end
definefont pop
/Palatino-Bold-latin1
    /Palatino-Bold findfont
    dup length dict begin
	{1 index /FID ne {def} {pop pop} ifelse} forall
	/Encoding isolatin1encoding def
    currentdict end
definefont pop
/Palatino-BoldItalic-latin1
    /Palatino-BoldItalic findfont
    dup length dict begin
	{1 index /FID ne {def} {pop pop} ifelse} forall
	/Encoding isolatin1encoding def
    currentdict end
definefont pop
/Symbol-latin1
    /Symbol findfont
definefont pop
/ZapfChancery-MediumItalic-latin1
    /ZapfChancery-MediumItalic findfont
    dup length dict begin
	{1 index /FID ne {def} {pop pop} ifelse} forall
	/Encoding isolatin1encoding def
    currentdict end
definefont pop
/ZapfDingbats-latin1
    /ZapfDingbats findfont
    dup length dict begin
	{1 index /FID ne {def} {pop pop} ifelse} forall
	/Encoding isolatin1encoding def
    currentdict end
definefont pop
28.346000 -28.346000 scale
-9.350000 -10.250000 translate
%%EndProlog


0.100000 slw
[] 0 sd
[] 0 sd
0 slc
0.000000 0.000000 0.000000 srgb
n 9.400000 5.200000 m 25.400000 5.200000 l s
/Helvetica-latin1 ff 0.560000 scf sf
(A1) 10.000000 5.850000 m
 gs 1 -1 sc sh gr
(A2) 12.000000 5.850000 m
 gs 1 -1 sc sh gr
(A3) 14.000000 5.850000 m
 gs 1 -1 sc sh gr
(A4) 16.000000 5.850000 m
 gs 1 -1 sc sh gr
(A5) 18.000000 5.850000 m
 gs 1 -1 sc sh gr
(A6) 20.000000 5.850000 m
 gs 1 -1 sc sh gr
(A7) 22.000000 5.850000 m
 gs 1 -1 sc sh gr
(A8) 24.000000 5.850000 m
 gs 1 -1 sc sh gr
0.100000 slw
[] 0 sd
[] 0 sd
0 slc
n 9.400000 6.200000 m 9.400000 5.200000 l s
0.100000 slw
[] 0 sd
[] 0 sd
0 slc
n 11.400000 6.200000 m 11.400000 5.200000 l s
0.100000 slw
[] 0 sd
[] 0 sd
0 slc
n 13.400000 6.200000 m 13.400000 5.200000 l s
0.100000 slw
[] 0 sd
[] 0 sd
0 slc
n 15.400000 6.200000 m 15.400000 5.200000 l s
0.100000 slw
[] 0 sd
[] 0 sd
0 slc
n 17.400000 6.200000 m 17.400000 5.200000 l s
0.100000 slw
[] 0 sd
[] 0 sd
0 slc
n 19.400000 6.200000 m 19.400000 5.200000 l s
0.100000 slw
[] 0 sd
[] 0 sd
0 slc
n 21.400000 6.200000 m 21.400000 5.200000 l s
0.100000 slw
[] 0 sd
[] 0 sd
0 slc
n 23.400000 6.200000 m 23.400000 5.200000 l s
0.100000 slw
[] 0 sd
[] 0 sd
0 slc
n 25.400000 6.200000 m 25.400000 5.200000 l s
0.100000 slw
[] 0 sd
[] 0 sd
0 slc
n 9.400000 6.200000 m 25.400000 6.200000 l s
0.100000 slw
[] 0 sd
[] 0 sd
0 slc
n 9.400000 7.200000 m 25.400000 7.200000 l s
(B1) 10.000000 7.850000 m
 gs 1 -1 sc sh gr
(B2) 12.000000 7.850000 m
 gs 1 -1 sc sh gr
(B3) 14.000000 7.850000 m
 gs 1 -1 sc sh gr
(B4) 16.000000 7.850000 m
 gs 1 -1 sc sh gr
(B5) 18.000000 7.850000 m
 gs 1 -1 sc sh gr
(B6) 20.000000 7.850000 m
 gs 1 -1 sc sh gr
(B7) 22.000000 7.850000 m
 gs 1 -1 sc sh gr
(B8) 24.000000 7.850000 m
 gs 1 -1 sc sh gr
0.100000 slw
[] 0 sd
[] 0 sd
0 slc
n 9.400000 8.200000 m 9.400000 7.200000 l s
0.100000 slw
[] 0 sd
[] 0 sd
0 slc
n 11.400000 8.200000 m 11.400000 7.200000 l s
0.100000 slw
[] 0 sd
[] 0 sd
0 slc
n 13.400000 8.200000 m 13.400000 7.200000 l s
0.100000 slw
[] 0 sd
[] 0 sd
0 slc
n 15.400000 8.200000 m 15.400000 7.200000 l s
0.100000 slw
[] 0 sd
[] 0 sd
0 slc
n 17.400000 8.200000 m 17.400000 7.200000 l s
0.100000 slw
[] 0 sd
[] 0 sd
0 slc
n 19.400000 8.200000 m 19.400000 7.200000 l s
0.100000 slw
[] 0 sd
[] 0 sd
0 slc
n 21.400000 8.200000 m 21.400000 7.200000 l s
0.100000 slw
[] 0 sd
[] 0 sd
0 slc
n 23.400000 8.200000 m 23.400000 7.200000 l s
0.100000 slw
[] 0 sd
[] 0 sd
0 slc
n 25.400000 8.200000 m 25.400000 7.200000 l s
0.100000 slw
[] 0 sd
[] 0 sd
0 slc
n 9.400000 8.200000 m 25.400000 8.200000 l s
(+) 17.100000 6.750000 m
 gs 1 -1 sc sh gr
(=) 17.100000 8.750000 m
 gs 1 -1 sc sh gr
0.100000 slw
[] 0 sd
[] 0 sd
0 slc
n 9.400000 9.200000 m 25.400000 9.200000 l s
(C1) 10.000000 9.850000 m
 gs 1 -1 sc sh gr
(C2) 12.000000 9.850000 m
 gs 1 -1 sc sh gr
(C3) 14.000000 9.850000 m
 gs 1 -1 sc sh gr
(C4) 16.000000 9.850000 m
 gs 1 -1 sc sh gr
(C5) 18.000000 9.850000 m
 gs 1 -1 sc sh gr
(C6) 20.000000 9.850000 m
 gs 1 -1 sc sh gr
(C7) 22.000000 9.850000 m
 gs 1 -1 sc sh gr
(C8) 24.000000 9.850000 m
 gs 1 -1 sc sh gr
0.100000 slw
[] 0 sd
[] 0 sd
0 slc
n 9.400000 10.200000 m 9.400000 9.200000 l s
0.100000 slw
[] 0 sd
[] 0 sd
0 slc
n 11.400000 10.200000 m 11.400000 9.200000 l s
0.100000 slw
[] 0 sd
[] 0 sd
0 slc
n 13.400000 10.200000 m 13.400000 9.200000 l s
0.100000 slw
[] 0 sd
[] 0 sd
0 slc
n 15.400000 10.200000 m 15.400000 9.200000 l s
0.100000 slw
[] 0 sd
[] 0 sd
0 slc
n 17.400000 10.200000 m 17.400000 9.200000 l s
0.100000 slw
[] 0 sd
[] 0 sd
0 slc
n 19.400000 10.200000 m 19.400000 9.200000 l s
0.100000 slw
[] 0 sd
[] 0 sd
0 slc
n 21.400000 10.200000 m 21.400000 9.200000 l s
0.100000 slw
[] 0 sd
[] 0 sd
0 slc
n 23.400000 10.200000 m 23.400000 9.200000 l s
0.100000 slw
[] 0 sd
[] 0 sd
0 slc
n 25.400000 10.200000 m 25.400000 9.200000 l s
0.100000 slw
[] 0 sd
[] 0 sd
0 slc
n 9.400000 10.200000 m 25.400000 10.200000 l s
showpage
