%!PS-Adobe-2.0 EPSF-2.0
%%Title: /home/msoderen/repositories/masterthesis/figures/transfer.dia
%%Creator: Dia v0.97.3
%%CreationDate: Wed Sep 27 16:52:30 2017
%%For: msoderen
%%Orientation: Portrait
%%Magnification: 1.0000
%%BoundingBox: 0 0 979 361
%%BeginSetup
%%EndSetup
%%EndComments
%%BeginProlog
[ /.notdef /.notdef /.notdef /.notdef /.notdef /.notdef /.notdef /.notdef /.notdef /.notdef
/.notdef /.notdef /.notdef /.notdef /.notdef /.notdef /.notdef /.notdef /.notdef /.notdef
/.notdef /.notdef /.notdef /.notdef /.notdef /.notdef /.notdef /.notdef /.notdef /.notdef
/.notdef /.notdef /space /exclam /quotedbl /numbersign /dollar /percent /ampersand /quoteright
/parenleft /parenright /asterisk /plus /comma /hyphen /period /slash /zero /one
/two /three /four /five /six /seven /eight /nine /colon /semicolon
/less /equal /greater /question /at /A /B /C /D /E
/F /G /H /I /J /K /L /M /N /O
/P /Q /R /S /T /U /V /W /X /Y
/Z /bracketleft /backslash /bracketright /asciicircum /underscore /quoteleft /a /b /c
/d /e /f /g /h /i /j /k /l /m
/n /o /p /q /r /s /t /u /v /w
/x /y /z /braceleft /bar /braceright /asciitilde /.notdef /.notdef /.notdef
/.notdef /.notdef /.notdef /.notdef /.notdef /.notdef /.notdef /.notdef /.notdef /.notdef
/.notdef /.notdef /.notdef /.notdef /.notdef /.notdef /.notdef /.notdef /.notdef /.notdef
/.notdef /.notdef /.notdef /.notdef /.notdef /.notdef /.notdef /.notdef /.notdef /.notdef
/space /exclamdown /cent /sterling /currency /yen /brokenbar /section /dieresis /copyright
/ordfeminine /guillemotleft /logicalnot /hyphen /registered /macron /degree /plusminus /twosuperior /threesuperior
/acute /mu /paragraph /periodcentered /cedilla /onesuperior /ordmasculine /guillemotright /onequarter /onehalf
/threequarters /questiondown /Agrave /Aacute /Acircumflex /Atilde /Adieresis /Aring /AE /Ccedilla
/Egrave /Eacute /Ecircumflex /Edieresis /Igrave /Iacute /Icircumflex /Idieresis /Eth /Ntilde
/Ograve /Oacute /Ocircumflex /Otilde /Odieresis /multiply /Oslash /Ugrave /Uacute /Ucircumflex
/Udieresis /Yacute /Thorn /germandbls /agrave /aacute /acircumflex /atilde /adieresis /aring
/ae /ccedilla /egrave /eacute /ecircumflex /edieresis /igrave /iacute /icircumflex /idieresis
/eth /ntilde /ograve /oacute /ocircumflex /otilde /odieresis /divide /oslash /ugrave
/uacute /ucircumflex /udieresis /yacute /thorn /ydieresis] /isolatin1encoding exch def
/cp {closepath} bind def
/c {curveto} bind def
/f {fill} bind def
/a {arc} bind def
/ef {eofill} bind def
/ex {exch} bind def
/gr {grestore} bind def
/gs {gsave} bind def
/sa {save} bind def
/rs {restore} bind def
/l {lineto} bind def
/m {moveto} bind def
/rm {rmoveto} bind def
/n {newpath} bind def
/s {stroke} bind def
/sh {show} bind def
/slc {setlinecap} bind def
/slj {setlinejoin} bind def
/slw {setlinewidth} bind def
/srgb {setrgbcolor} bind def
/rot {rotate} bind def
/sc {scale} bind def
/sd {setdash} bind def
/ff {findfont} bind def
/sf {setfont} bind def
/scf {scalefont} bind def
/sw {stringwidth pop} bind def
/tr {translate} bind def

/ellipsedict 8 dict def
ellipsedict /mtrx matrix put
/ellipse
{ ellipsedict begin
   /endangle exch def
   /startangle exch def
   /yrad exch def
   /xrad exch def
   /y exch def
   /x exch def   /savematrix mtrx currentmatrix def
   x y tr xrad yrad sc
   0 0 1 startangle endangle arc
   savematrix setmatrix
   end
} def

/mergeprocs {
dup length
3 -1 roll
dup
length
dup
5 1 roll
3 -1 roll
add
array cvx
dup
3 -1 roll
0 exch
putinterval
dup
4 2 roll
putinterval
} bind def
/Times-Roman-latin1
    /Times-Roman findfont
    dup length dict begin
	{1 index /FID ne {def} {pop pop} ifelse} forall
	/Encoding isolatin1encoding def
    currentdict end
definefont pop
/Times-Italic-latin1
    /Times-Italic findfont
    dup length dict begin
	{1 index /FID ne {def} {pop pop} ifelse} forall
	/Encoding isolatin1encoding def
    currentdict end
definefont pop
/Times-Bold-latin1
    /Times-Bold findfont
    dup length dict begin
	{1 index /FID ne {def} {pop pop} ifelse} forall
	/Encoding isolatin1encoding def
    currentdict end
definefont pop
/Times-BoldItalic-latin1
    /Times-BoldItalic findfont
    dup length dict begin
	{1 index /FID ne {def} {pop pop} ifelse} forall
	/Encoding isolatin1encoding def
    currentdict end
definefont pop
/AvantGarde-Gothic-latin1
    /AvantGarde-Gothic findfont
    dup length dict begin
	{1 index /FID ne {def} {pop pop} ifelse} forall
	/Encoding isolatin1encoding def
    currentdict end
definefont pop
/AvantGarde-BookOblique-latin1
    /AvantGarde-BookOblique findfont
    dup length dict begin
	{1 index /FID ne {def} {pop pop} ifelse} forall
	/Encoding isolatin1encoding def
    currentdict end
definefont pop
/AvantGarde-Demi-latin1
    /AvantGarde-Demi findfont
    dup length dict begin
	{1 index /FID ne {def} {pop pop} ifelse} forall
	/Encoding isolatin1encoding def
    currentdict end
definefont pop
/AvantGarde-DemiOblique-latin1
    /AvantGarde-DemiOblique findfont
    dup length dict begin
	{1 index /FID ne {def} {pop pop} ifelse} forall
	/Encoding isolatin1encoding def
    currentdict end
definefont pop
/Bookman-Light-latin1
    /Bookman-Light findfont
    dup length dict begin
	{1 index /FID ne {def} {pop pop} ifelse} forall
	/Encoding isolatin1encoding def
    currentdict end
definefont pop
/Bookman-LightItalic-latin1
    /Bookman-LightItalic findfont
    dup length dict begin
	{1 index /FID ne {def} {pop pop} ifelse} forall
	/Encoding isolatin1encoding def
    currentdict end
definefont pop
/Bookman-Demi-latin1
    /Bookman-Demi findfont
    dup length dict begin
	{1 index /FID ne {def} {pop pop} ifelse} forall
	/Encoding isolatin1encoding def
    currentdict end
definefont pop
/Bookman-DemiItalic-latin1
    /Bookman-DemiItalic findfont
    dup length dict begin
	{1 index /FID ne {def} {pop pop} ifelse} forall
	/Encoding isolatin1encoding def
    currentdict end
definefont pop
/Courier-latin1
    /Courier findfont
    dup length dict begin
	{1 index /FID ne {def} {pop pop} ifelse} forall
	/Encoding isolatin1encoding def
    currentdict end
definefont pop
/Courier-Oblique-latin1
    /Courier-Oblique findfont
    dup length dict begin
	{1 index /FID ne {def} {pop pop} ifelse} forall
	/Encoding isolatin1encoding def
    currentdict end
definefont pop
/Courier-Bold-latin1
    /Courier-Bold findfont
    dup length dict begin
	{1 index /FID ne {def} {pop pop} ifelse} forall
	/Encoding isolatin1encoding def
    currentdict end
definefont pop
/Courier-BoldOblique-latin1
    /Courier-BoldOblique findfont
    dup length dict begin
	{1 index /FID ne {def} {pop pop} ifelse} forall
	/Encoding isolatin1encoding def
    currentdict end
definefont pop
/Helvetica-latin1
    /Helvetica findfont
    dup length dict begin
	{1 index /FID ne {def} {pop pop} ifelse} forall
	/Encoding isolatin1encoding def
    currentdict end
definefont pop
/Helvetica-Oblique-latin1
    /Helvetica-Oblique findfont
    dup length dict begin
	{1 index /FID ne {def} {pop pop} ifelse} forall
	/Encoding isolatin1encoding def
    currentdict end
definefont pop
/Helvetica-Bold-latin1
    /Helvetica-Bold findfont
    dup length dict begin
	{1 index /FID ne {def} {pop pop} ifelse} forall
	/Encoding isolatin1encoding def
    currentdict end
definefont pop
/Helvetica-BoldOblique-latin1
    /Helvetica-BoldOblique findfont
    dup length dict begin
	{1 index /FID ne {def} {pop pop} ifelse} forall
	/Encoding isolatin1encoding def
    currentdict end
definefont pop
/Helvetica-Narrow-latin1
    /Helvetica-Narrow findfont
    dup length dict begin
	{1 index /FID ne {def} {pop pop} ifelse} forall
	/Encoding isolatin1encoding def
    currentdict end
definefont pop
/Helvetica-Narrow-Oblique-latin1
    /Helvetica-Narrow-Oblique findfont
    dup length dict begin
	{1 index /FID ne {def} {pop pop} ifelse} forall
	/Encoding isolatin1encoding def
    currentdict end
definefont pop
/Helvetica-Narrow-Bold-latin1
    /Helvetica-Narrow-Bold findfont
    dup length dict begin
	{1 index /FID ne {def} {pop pop} ifelse} forall
	/Encoding isolatin1encoding def
    currentdict end
definefont pop
/Helvetica-Narrow-BoldOblique-latin1
    /Helvetica-Narrow-BoldOblique findfont
    dup length dict begin
	{1 index /FID ne {def} {pop pop} ifelse} forall
	/Encoding isolatin1encoding def
    currentdict end
definefont pop
/NewCenturySchlbk-Roman-latin1
    /NewCenturySchlbk-Roman findfont
    dup length dict begin
	{1 index /FID ne {def} {pop pop} ifelse} forall
	/Encoding isolatin1encoding def
    currentdict end
definefont pop
/NewCenturySchlbk-Italic-latin1
    /NewCenturySchlbk-Italic findfont
    dup length dict begin
	{1 index /FID ne {def} {pop pop} ifelse} forall
	/Encoding isolatin1encoding def
    currentdict end
definefont pop
/NewCenturySchlbk-Bold-latin1
    /NewCenturySchlbk-Bold findfont
    dup length dict begin
	{1 index /FID ne {def} {pop pop} ifelse} forall
	/Encoding isolatin1encoding def
    currentdict end
definefont pop
/NewCenturySchlbk-BoldItalic-latin1
    /NewCenturySchlbk-BoldItalic findfont
    dup length dict begin
	{1 index /FID ne {def} {pop pop} ifelse} forall
	/Encoding isolatin1encoding def
    currentdict end
definefont pop
/Palatino-Roman-latin1
    /Palatino-Roman findfont
    dup length dict begin
	{1 index /FID ne {def} {pop pop} ifelse} forall
	/Encoding isolatin1encoding def
    currentdict end
definefont pop
/Palatino-Italic-latin1
    /Palatino-Italic findfont
    dup length dict begin
	{1 index /FID ne {def} {pop pop} ifelse} forall
	/Encoding isolatin1encoding def
    currentdict end
definefont pop
/Palatino-Bold-latin1
    /Palatino-Bold findfont
    dup length dict begin
	{1 index /FID ne {def} {pop pop} ifelse} forall
	/Encoding isolatin1encoding def
    currentdict end
definefont pop
/Palatino-BoldItalic-latin1
    /Palatino-BoldItalic findfont
    dup length dict begin
	{1 index /FID ne {def} {pop pop} ifelse} forall
	/Encoding isolatin1encoding def
    currentdict end
definefont pop
/Symbol-latin1
    /Symbol findfont
definefont pop
/ZapfChancery-MediumItalic-latin1
    /ZapfChancery-MediumItalic findfont
    dup length dict begin
	{1 index /FID ne {def} {pop pop} ifelse} forall
	/Encoding isolatin1encoding def
    currentdict end
definefont pop
/ZapfDingbats-latin1
    /ZapfDingbats findfont
    dup length dict begin
	{1 index /FID ne {def} {pop pop} ifelse} forall
	/Encoding isolatin1encoding def
    currentdict end
definefont pop
28.346000 -28.346000 scale
0.700008 -12.170441 translate
%%EndProlog


0.100000 slw
[] 0 sd
[] 0 sd
0 slc
0.000000 0.000000 0.000000 srgb
n 6.824987 2.249996 m 28.624987 2.249996 l s
0.100000 slw
[] 0 sd
[] 0 sd
0 slc
n 6.824987 2.249996 m 6.824987 1.249996 l s
0.100000 slw
[] 0 sd
[] 0 sd
0 slc
n 10.424987 2.269996 m 10.424987 1.249996 l s
0.100000 slw
[] 0 sd
[] 0 sd
0 slc
n 14.124987 2.269996 m 14.124987 1.249996 l s
0.100000 slw
[] 0 sd
[] 0 sd
0 slc
n 17.724987 2.249996 m 17.724974 1.266952 l s
0.100000 slw
[] 0 sd
[] 0 sd
0 slc
n 21.324987 2.249996 m 21.324987 1.269996 l s
0.100000 slw
[] 0 sd
[] 0 sd
0 slc
n 25.024987 2.249996 m 25.024987 1.269996 l s
0.100000 slw
[] 0 sd
[] 0 sd
0 slc
n 28.624987 2.249996 m 28.624987 1.269996 l s
/Helvetica-latin1 ff 0.560000 scf sf
(T0) 6.424987 0.889996 m
 gs 1 -1 sc sh gr
/Helvetica-latin1 ff 0.560000 scf sf
(T1) 10.024987 0.889996 m
 gs 1 -1 sc sh gr
/Helvetica-latin1 ff 0.560000 scf sf
(T2) 13.724987 0.889996 m
 gs 1 -1 sc sh gr
/Helvetica-latin1 ff 0.560000 scf sf
(T3) 17.424987 0.889996 m
 gs 1 -1 sc sh gr
/Helvetica-latin1 ff 0.560000 scf sf
(T4) 20.924987 0.889996 m
 gs 1 -1 sc sh gr
/Helvetica-latin1 ff 0.560000 scf sf
(T5) 24.624987 0.889996 m
 gs 1 -1 sc sh gr
/Helvetica-latin1 ff 0.560000 scf sf
(T6) 28.224987 0.889996 m
 gs 1 -1 sc sh gr
/Helvetica-latin1 ff 0.740833 scf sf
(ObsBoxBuffer:) 0.524989 2.038329 m
 gs 1 -1 sc sh gr
0.100000 slw
[] 0 sd
[] 0 sd
0 slc
n 11.324987 6.249996 m 33.124987 6.249996 l s
0.100000 slw
[] 0 sd
[] 0 sd
0 slc
n 11.324987 6.249996 m 11.324987 5.249996 l s
0.100000 slw
[] 0 sd
[] 0 sd
0 slc
n 14.924987 6.269996 m 14.924987 5.249996 l s
0.100000 slw
[] 0 sd
[] 0 sd
0 slc
n 18.624987 6.269996 m 18.624987 5.249996 l s
0.100000 slw
[] 0 sd
[] 0 sd
0 slc
n 22.224987 6.249996 m 22.324987 5.269996 l s
0.100000 slw
[] 0 sd
[] 0 sd
0 slc
n 25.824987 6.249996 m 25.824987 5.269996 l s
0.100000 slw
[] 0 sd
[] 0 sd
0 slc
n 29.524987 6.249996 m 29.524987 5.269996 l s
0.100000 slw
[] 0 sd
[] 0 sd
0 slc
n 33.124987 6.249996 m 33.124987 5.269996 l s
0.050000 slw
[0.200000] 0 sd
[0.200000] 0 sd
0 slc
n 6.824987 2.249996 m 11.231961 5.187978 l s
0.050000 slw
[] 0 sd
0 slj
0 slc
n 10.723773 5.149649 m 11.278474 5.218987 l 11.001123 4.733624 l s
0.100000 slw
[] 0 sd
[] 0 sd
0 slc
n 11.324987 6.549996 m 11.324987 6.949996 l s
0.050000 slw
[] 0 sd
[] 0 sd
0 slc
n 11.324987 6.749996 m 6.824987 6.749996 l s
0.100000 slw
[] 0 sd
[] 0 sd
0 slc
n 6.824987 6.549996 m 6.824987 6.949996 l s
/Helvetica-latin1 ff 0.740833 scf sf
(447 ms) 7.709652 6.417307 m
 gs 1 -1 sc sh gr
/Helvetica-latin1 ff 0.740833 scf sf
(EventProducer:) 0.049990 5.988329 m
 gs 1 -1 sc sh gr
0.100000 slw
[] 0 sd
[] 0 sd
0 slc
n 11.824987 10.249996 m 33.624987 10.249996 l s
0.100000 slw
[] 0 sd
[] 0 sd
0 slc
n 11.824987 10.249996 m 11.824987 9.249996 l s
0.100000 slw
[] 0 sd
[] 0 sd
0 slc
n 15.424987 10.269996 m 15.424987 9.249996 l s
0.100000 slw
[] 0 sd
[] 0 sd
0 slc
n 19.124987 10.269996 m 19.124987 9.249996 l s
0.100000 slw
[] 0 sd
[] 0 sd
0 slc
n 22.724987 10.249996 m 22.824987 9.269996 l s
0.100000 slw
[] 0 sd
[] 0 sd
0 slc
n 26.324987 10.249996 m 26.324987 9.269996 l s
0.100000 slw
[] 0 sd
[] 0 sd
0 slc
n 30.024987 10.249996 m 30.024987 9.269996 l s
0.100000 slw
[] 0 sd
[] 0 sd
0 slc
n 33.624987 10.249996 m 33.624987 9.269996 l s
/Helvetica-latin1 ff 0.740833 scf sf
(Real-time action:) -0.700008 9.988329 m
 gs 1 -1 sc sh gr
0.100000 slw
[] 0 sd
[] 0 sd
0 slc
n 11.824987 10.649996 m 11.824987 11.049996 l s
0.100000 slw
[] 0 sd
[] 0 sd
0 slc
n 11.324987 10.649996 m 11.324987 11.049996 l s
0.050000 slw
[] 0 sd
[] 0 sd
0 slc
n 11.324987 10.849996 m 11.824987 10.849996 l s
/Helvetica-latin1 ff 0.560000 scf sf
/Helvetica-latin1 ff 0.740833 scf sf
(<1 ms) 10.219875 11.664463 m
 gs 1 -1 sc sh gr
0.050000 slw
[0.200000] 0 sd
[0.200000] 0 sd
0 slc
n 10.424987 2.249996 m 14.831961 5.187978 l s
0.050000 slw
[] 0 sd
0 slj
0 slc
n 14.323773 5.149649 m 14.878474 5.218987 l 14.601123 4.733624 l s
0.050000 slw
[0.200000] 0 sd
[0.200000] 0 sd
0 slc
n 14.124987 2.249996 m 18.531961 5.187978 l s
0.050000 slw
[] 0 sd
0 slj
0 slc
n 18.023773 5.149649 m 18.578474 5.218987 l 18.301123 4.733624 l s
0.050000 slw
[0.200000] 0 sd
[0.200000] 0 sd
0 slc
n 17.724987 2.249996 m 22.231339 5.188921 l s
0.050000 slw
[] 0 sd
0 slj
0 slc
n 21.722791 5.155727 m 22.278163 5.219458 l 21.995924 4.736922 l s
0.050000 slw
[0.200000] 0 sd
[0.200000] 0 sd
0 slc
n 21.324987 2.249996 m 25.731961 5.187978 l s
0.050000 slw
[] 0 sd
0 slj
0 slc
n 25.223773 5.149649 m 25.778474 5.218987 l 25.501123 4.733624 l s
0.050000 slw
[0.200000] 0 sd
[0.200000] 0 sd
0 slc
n 25.024987 2.249996 m 29.431961 5.187978 l s
0.050000 slw
[] 0 sd
0 slj
0 slc
n 28.923773 5.149649 m 29.478474 5.218987 l 29.201123 4.733624 l s
0.050000 slw
[0.200000] 0 sd
[0.200000] 0 sd
0 slc
n 28.624987 2.249996 m 33.031961 5.187978 l s
0.050000 slw
[] 0 sd
0 slj
0 slc
n 32.523773 5.149649 m 33.078474 5.218987 l 32.801123 4.733624 l s
0.050000 slw
[0.200000] 0 sd
[0.200000] 0 sd
0 slc
n 11.324987 6.249996 m 11.806606 9.139713 l s
0.050000 slw
[] 0 sd
0 slj
0 slc
n 11.486998 8.742757 m 11.815796 9.194854 l 11.980195 8.660558 l s
0.050000 slw
[0.200000] 0 sd
[0.200000] 0 sd
0 slc
n 14.924987 6.249996 m 15.406606 9.139713 l s
0.050000 slw
[] 0 sd
0 slj
0 slc
n 15.086998 8.742757 m 15.415796 9.194854 l 15.580195 8.660558 l s
0.050000 slw
[0.200000] 0 sd
[0.200000] 0 sd
0 slc
n 18.624987 6.249996 m 19.106606 9.139713 l s
0.050000 slw
[] 0 sd
0 slj
0 slc
n 18.786998 8.742757 m 19.115796 9.194854 l 19.280195 8.660558 l s
0.050000 slw
[0.200000] 0 sd
[0.200000] 0 sd
0 slc
n 22.224987 6.249996 m 22.803060 9.140363 l s
0.050000 slw
[] 0 sd
0 slj
0 slc
n 22.470820 8.753918 m 22.814023 9.195179 l 22.961110 8.655860 l s
0.050000 slw
[0.200000] 0 sd
[0.200000] 0 sd
0 slc
n 25.824987 6.249996 m 26.306606 9.139713 l s
0.050000 slw
[] 0 sd
0 slj
0 slc
n 25.986998 8.742757 m 26.315796 9.194854 l 26.480195 8.660558 l s
0.050000 slw
[0.200000] 0 sd
[0.200000] 0 sd
0 slc
n 29.524987 6.249996 m 30.006606 9.139713 l s
0.050000 slw
[] 0 sd
0 slj
0 slc
n 29.686998 8.742757 m 30.015796 9.194854 l 30.180195 8.660558 l s
0.050000 slw
[0.200000] 0 sd
[0.200000] 0 sd
0 slc
n 33.124987 6.249996 m 33.606606 9.139713 l s
0.050000 slw
[] 0 sd
0 slj
0 slc
n 33.286998 8.742757 m 33.615796 9.194854 l 33.780195 8.660558 l s
/Helvetica-latin1 ff 0.740833 scf sf
(Acquire) dup sw 2 div 8.549987 ex sub 0.038331 m
 gs 1 -1 sc sh gr
(data) dup sw 2 div 8.549987 ex sub 1.096664 m
 gs 1 -1 sc sh gr
/Helvetica-latin1 ff 0.740833 scf sf
(wait) 12.235786 5.754240 m
 gs 1 -1 sc sh gr
/Helvetica-latin1 ff 0.740833 scf sf
(parse) dup sw 2 div 13.603964 ex sub 8.596861 m
 gs 1 -1 sc sh gr
(data) dup sw 2 div 13.603964 ex sub 9.655194 m
 gs 1 -1 sc sh gr
0.100000 slw
[] 0 sd
[] 0 sd
0 slc
n 19.124987 10.749996 m 19.124987 11.149996 l s
0.050000 slw
[] 0 sd
[] 0 sd
0 slc
n 19.124987 10.949996 m 15.424987 10.949996 l s
0.100000 slw
[] 0 sd
[] 0 sd
0 slc
n 15.424987 10.749996 m 15.424987 11.149996 l s
/Helvetica-latin1 ff 0.740833 scf sf
(364 ms) 15.762496 11.758775 m
 gs 1 -1 sc sh gr
showpage
