%!PS-Adobe-2.0 EPSF-2.0
%%Title: /home/martin/newstructure.dia
%%Creator: Dia v0.97.3
%%CreationDate: Tue Dec  6 17:08:28 2016
%%For: martin
%%Orientation: Portrait
%%Magnification: 1.0000
%%BoundingBox: 0 0 776 590
%%BeginSetup
%%EndSetup
%%EndComments
%%BeginProlog
[ /.notdef /.notdef /.notdef /.notdef /.notdef /.notdef /.notdef /.notdef /.notdef /.notdef
/.notdef /.notdef /.notdef /.notdef /.notdef /.notdef /.notdef /.notdef /.notdef /.notdef
/.notdef /.notdef /.notdef /.notdef /.notdef /.notdef /.notdef /.notdef /.notdef /.notdef
/.notdef /.notdef /space /exclam /quotedbl /numbersign /dollar /percent /ampersand /quoteright
/parenleft /parenright /asterisk /plus /comma /hyphen /period /slash /zero /one
/two /three /four /five /six /seven /eight /nine /colon /semicolon
/less /equal /greater /question /at /A /B /C /D /E
/F /G /H /I /J /K /L /M /N /O
/P /Q /R /S /T /U /V /W /X /Y
/Z /bracketleft /backslash /bracketright /asciicircum /underscore /quoteleft /a /b /c
/d /e /f /g /h /i /j /k /l /m
/n /o /p /q /r /s /t /u /v /w
/x /y /z /braceleft /bar /braceright /asciitilde /.notdef /.notdef /.notdef
/.notdef /.notdef /.notdef /.notdef /.notdef /.notdef /.notdef /.notdef /.notdef /.notdef
/.notdef /.notdef /.notdef /.notdef /.notdef /.notdef /.notdef /.notdef /.notdef /.notdef
/.notdef /.notdef /.notdef /.notdef /.notdef /.notdef /.notdef /.notdef /.notdef /.notdef
/space /exclamdown /cent /sterling /currency /yen /brokenbar /section /dieresis /copyright
/ordfeminine /guillemotleft /logicalnot /hyphen /registered /macron /degree /plusminus /twosuperior /threesuperior
/acute /mu /paragraph /periodcentered /cedilla /onesuperior /ordmasculine /guillemotright /onequarter /onehalf
/threequarters /questiondown /Agrave /Aacute /Acircumflex /Atilde /Adieresis /Aring /AE /Ccedilla
/Egrave /Eacute /Ecircumflex /Edieresis /Igrave /Iacute /Icircumflex /Idieresis /Eth /Ntilde
/Ograve /Oacute /Ocircumflex /Otilde /Odieresis /multiply /Oslash /Ugrave /Uacute /Ucircumflex
/Udieresis /Yacute /Thorn /germandbls /agrave /aacute /acircumflex /atilde /adieresis /aring
/ae /ccedilla /egrave /eacute /ecircumflex /edieresis /igrave /iacute /icircumflex /idieresis
/eth /ntilde /ograve /oacute /ocircumflex /otilde /odieresis /divide /oslash /ugrave
/uacute /ucircumflex /udieresis /yacute /thorn /ydieresis] /isolatin1encoding exch def
/cp {closepath} bind def
/c {curveto} bind def
/f {fill} bind def
/a {arc} bind def
/ef {eofill} bind def
/ex {exch} bind def
/gr {grestore} bind def
/gs {gsave} bind def
/sa {save} bind def
/rs {restore} bind def
/l {lineto} bind def
/m {moveto} bind def
/rm {rmoveto} bind def
/n {newpath} bind def
/s {stroke} bind def
/sh {show} bind def
/slc {setlinecap} bind def
/slj {setlinejoin} bind def
/slw {setlinewidth} bind def
/srgb {setrgbcolor} bind def
/rot {rotate} bind def
/sc {scale} bind def
/sd {setdash} bind def
/ff {findfont} bind def
/sf {setfont} bind def
/scf {scalefont} bind def
/sw {stringwidth pop} bind def
/tr {translate} bind def

/ellipsedict 8 dict def
ellipsedict /mtrx matrix put
/ellipse
{ ellipsedict begin
   /endangle exch def
   /startangle exch def
   /yrad exch def
   /xrad exch def
   /y exch def
   /x exch def   /savematrix mtrx currentmatrix def
   x y tr xrad yrad sc
   0 0 1 startangle endangle arc
   savematrix setmatrix
   end
} def

/mergeprocs {
dup length
3 -1 roll
dup
length
dup
5 1 roll
3 -1 roll
add
array cvx
dup
3 -1 roll
0 exch
putinterval
dup
4 2 roll
putinterval
} bind def
/Times-Roman-latin1
    /Times-Roman findfont
    dup length dict begin
	{1 index /FID ne {def} {pop pop} ifelse} forall
	/Encoding isolatin1encoding def
    currentdict end
definefont pop
/Times-Italic-latin1
    /Times-Italic findfont
    dup length dict begin
	{1 index /FID ne {def} {pop pop} ifelse} forall
	/Encoding isolatin1encoding def
    currentdict end
definefont pop
/Times-Bold-latin1
    /Times-Bold findfont
    dup length dict begin
	{1 index /FID ne {def} {pop pop} ifelse} forall
	/Encoding isolatin1encoding def
    currentdict end
definefont pop
/Times-BoldItalic-latin1
    /Times-BoldItalic findfont
    dup length dict begin
	{1 index /FID ne {def} {pop pop} ifelse} forall
	/Encoding isolatin1encoding def
    currentdict end
definefont pop
/AvantGarde-Gothic-latin1
    /AvantGarde-Gothic findfont
    dup length dict begin
	{1 index /FID ne {def} {pop pop} ifelse} forall
	/Encoding isolatin1encoding def
    currentdict end
definefont pop
/AvantGarde-BookOblique-latin1
    /AvantGarde-BookOblique findfont
    dup length dict begin
	{1 index /FID ne {def} {pop pop} ifelse} forall
	/Encoding isolatin1encoding def
    currentdict end
definefont pop
/AvantGarde-Demi-latin1
    /AvantGarde-Demi findfont
    dup length dict begin
	{1 index /FID ne {def} {pop pop} ifelse} forall
	/Encoding isolatin1encoding def
    currentdict end
definefont pop
/AvantGarde-DemiOblique-latin1
    /AvantGarde-DemiOblique findfont
    dup length dict begin
	{1 index /FID ne {def} {pop pop} ifelse} forall
	/Encoding isolatin1encoding def
    currentdict end
definefont pop
/Bookman-Light-latin1
    /Bookman-Light findfont
    dup length dict begin
	{1 index /FID ne {def} {pop pop} ifelse} forall
	/Encoding isolatin1encoding def
    currentdict end
definefont pop
/Bookman-LightItalic-latin1
    /Bookman-LightItalic findfont
    dup length dict begin
	{1 index /FID ne {def} {pop pop} ifelse} forall
	/Encoding isolatin1encoding def
    currentdict end
definefont pop
/Bookman-Demi-latin1
    /Bookman-Demi findfont
    dup length dict begin
	{1 index /FID ne {def} {pop pop} ifelse} forall
	/Encoding isolatin1encoding def
    currentdict end
definefont pop
/Bookman-DemiItalic-latin1
    /Bookman-DemiItalic findfont
    dup length dict begin
	{1 index /FID ne {def} {pop pop} ifelse} forall
	/Encoding isolatin1encoding def
    currentdict end
definefont pop
/Courier-latin1
    /Courier findfont
    dup length dict begin
	{1 index /FID ne {def} {pop pop} ifelse} forall
	/Encoding isolatin1encoding def
    currentdict end
definefont pop
/Courier-Oblique-latin1
    /Courier-Oblique findfont
    dup length dict begin
	{1 index /FID ne {def} {pop pop} ifelse} forall
	/Encoding isolatin1encoding def
    currentdict end
definefont pop
/Courier-Bold-latin1
    /Courier-Bold findfont
    dup length dict begin
	{1 index /FID ne {def} {pop pop} ifelse} forall
	/Encoding isolatin1encoding def
    currentdict end
definefont pop
/Courier-BoldOblique-latin1
    /Courier-BoldOblique findfont
    dup length dict begin
	{1 index /FID ne {def} {pop pop} ifelse} forall
	/Encoding isolatin1encoding def
    currentdict end
definefont pop
/Helvetica-latin1
    /Helvetica findfont
    dup length dict begin
	{1 index /FID ne {def} {pop pop} ifelse} forall
	/Encoding isolatin1encoding def
    currentdict end
definefont pop
/Helvetica-Oblique-latin1
    /Helvetica-Oblique findfont
    dup length dict begin
	{1 index /FID ne {def} {pop pop} ifelse} forall
	/Encoding isolatin1encoding def
    currentdict end
definefont pop
/Helvetica-Bold-latin1
    /Helvetica-Bold findfont
    dup length dict begin
	{1 index /FID ne {def} {pop pop} ifelse} forall
	/Encoding isolatin1encoding def
    currentdict end
definefont pop
/Helvetica-BoldOblique-latin1
    /Helvetica-BoldOblique findfont
    dup length dict begin
	{1 index /FID ne {def} {pop pop} ifelse} forall
	/Encoding isolatin1encoding def
    currentdict end
definefont pop
/Helvetica-Narrow-latin1
    /Helvetica-Narrow findfont
    dup length dict begin
	{1 index /FID ne {def} {pop pop} ifelse} forall
	/Encoding isolatin1encoding def
    currentdict end
definefont pop
/Helvetica-Narrow-Oblique-latin1
    /Helvetica-Narrow-Oblique findfont
    dup length dict begin
	{1 index /FID ne {def} {pop pop} ifelse} forall
	/Encoding isolatin1encoding def
    currentdict end
definefont pop
/Helvetica-Narrow-Bold-latin1
    /Helvetica-Narrow-Bold findfont
    dup length dict begin
	{1 index /FID ne {def} {pop pop} ifelse} forall
	/Encoding isolatin1encoding def
    currentdict end
definefont pop
/Helvetica-Narrow-BoldOblique-latin1
    /Helvetica-Narrow-BoldOblique findfont
    dup length dict begin
	{1 index /FID ne {def} {pop pop} ifelse} forall
	/Encoding isolatin1encoding def
    currentdict end
definefont pop
/NewCenturySchlbk-Roman-latin1
    /NewCenturySchlbk-Roman findfont
    dup length dict begin
	{1 index /FID ne {def} {pop pop} ifelse} forall
	/Encoding isolatin1encoding def
    currentdict end
definefont pop
/NewCenturySchlbk-Italic-latin1
    /NewCenturySchlbk-Italic findfont
    dup length dict begin
	{1 index /FID ne {def} {pop pop} ifelse} forall
	/Encoding isolatin1encoding def
    currentdict end
definefont pop
/NewCenturySchlbk-Bold-latin1
    /NewCenturySchlbk-Bold findfont
    dup length dict begin
	{1 index /FID ne {def} {pop pop} ifelse} forall
	/Encoding isolatin1encoding def
    currentdict end
definefont pop
/NewCenturySchlbk-BoldItalic-latin1
    /NewCenturySchlbk-BoldItalic findfont
    dup length dict begin
	{1 index /FID ne {def} {pop pop} ifelse} forall
	/Encoding isolatin1encoding def
    currentdict end
definefont pop
/Palatino-Roman-latin1
    /Palatino-Roman findfont
    dup length dict begin
	{1 index /FID ne {def} {pop pop} ifelse} forall
	/Encoding isolatin1encoding def
    currentdict end
definefont pop
/Palatino-Italic-latin1
    /Palatino-Italic findfont
    dup length dict begin
	{1 index /FID ne {def} {pop pop} ifelse} forall
	/Encoding isolatin1encoding def
    currentdict end
definefont pop
/Palatino-Bold-latin1
    /Palatino-Bold findfont
    dup length dict begin
	{1 index /FID ne {def} {pop pop} ifelse} forall
	/Encoding isolatin1encoding def
    currentdict end
definefont pop
/Palatino-BoldItalic-latin1
    /Palatino-BoldItalic findfont
    dup length dict begin
	{1 index /FID ne {def} {pop pop} ifelse} forall
	/Encoding isolatin1encoding def
    currentdict end
definefont pop
/Symbol-latin1
    /Symbol findfont
definefont pop
/ZapfChancery-MediumItalic-latin1
    /ZapfChancery-MediumItalic findfont
    dup length dict begin
	{1 index /FID ne {def} {pop pop} ifelse} forall
	/Encoding isolatin1encoding def
    currentdict end
definefont pop
/ZapfDingbats-latin1
    /ZapfDingbats findfont
    dup length dict begin
	{1 index /FID ne {def} {pop pop} ifelse} forall
	/Encoding isolatin1encoding def
    currentdict end
definefont pop
28.346000 -28.346000 scale
-8.300000 -10.850000 translate
%%EndProlog


/Helvetica-latin1 ff 0.560000 scf sf
1.000000 1.000000 1.000000 srgb
n 9.400000 -9.900000 m 9.400000 -8.000000 l 17.272500 -8.000000 l 17.272500 -9.900000 l f
0.100000 slw
[] 0 sd
[] 0 sd
0 slj
0.000000 0.000000 0.000000 srgb
n 9.400000 -9.900000 m 9.400000 -8.000000 l 17.272500 -8.000000 l 17.272500 -9.900000 l cp s
(OnMultiThreadedCES) dup sw 2 div 13.336250 ex sub -8.905000 m
 gs 1 -1 sc sh gr
1.000000 1.000000 1.000000 srgb
n 10.400000 -6.000000 m 10.400000 -4.100000 l 16.400000 -4.100000 l 16.400000 -6.000000 l f
0.100000 slw
[] 0 sd
[] 0 sd
0 slj
0.000000 0.000000 0.000000 srgb
n 10.400000 -6.000000 m 10.400000 -4.100000 l 16.400000 -4.100000 l 16.400000 -6.000000 l cp s
(BlockingQueue) dup sw 2 div 13.400000 ex sub -5.005000 m
 gs 1 -1 sc sh gr
0.100000 slw
[] 0 sd
[] 0 sd
0 slc
n 13.352600 -7.949768 m 13.379995 -6.273809 l s
0.100000 slw
[] 0 sd
0 slj
0 slc
n 13.123684 -6.657868 m 13.381823 -6.162020 l 13.623617 -6.666040 l s
(Push vectors of data from each turn) 8.300000 -7.150000 m
 gs 1 -1 sc sh gr
1.000000 1.000000 1.000000 srgb
n 10.400000 -3.000000 m 10.400000 -1.100000 l 16.400000 -1.100000 l 16.400000 -3.000000 l f
0.100000 slw
[] 0 sd
[] 0 sd
0 slj
0.000000 0.000000 0.000000 srgb
n 10.400000 -3.000000 m 10.400000 -1.100000 l 16.400000 -1.100000 l 16.400000 -3.000000 l cp s
(Notch) dup sw 2 div 13.400000 ex sub -2.005000 m
 gs 1 -1 sc sh gr
1.000000 1.000000 1.000000 srgb
n 10.400000 -0.100000 m 10.400000 1.800000 l 16.400000 1.800000 l 16.400000 -0.100000 l f
0.100000 slw
[] 0 sd
[] 0 sd
0 slj
0.000000 0.000000 0.000000 srgb
n 10.400000 -0.100000 m 10.400000 1.800000 l 16.400000 1.800000 l 16.400000 -0.100000 l cp s
(BlockingQueue) dup sw 2 div 13.400000 ex sub 0.895000 m
 gs 1 -1 sc sh gr
1.000000 1.000000 1.000000 srgb
n 10.400000 2.900000 m 10.400000 4.800000 l 16.400000 4.800000 l 16.400000 2.900000 l f
0.100000 slw
[] 0 sd
[] 0 sd
0 slj
0.000000 0.000000 0.000000 srgb
n 10.400000 2.900000 m 10.400000 4.800000 l 16.400000 4.800000 l 16.400000 2.900000 l cp s
(I & Q) dup sw 2 div 13.400000 ex sub 3.895000 m
 gs 1 -1 sc sh gr
1.000000 1.000000 1.000000 srgb
n 10.400000 5.900000 m 10.400000 7.800000 l 16.400000 7.800000 l 16.400000 5.900000 l f
0.100000 slw
[] 0 sd
[] 0 sd
0 slj
0.000000 0.000000 0.000000 srgb
n 10.400000 5.900000 m 10.400000 7.800000 l 16.400000 7.800000 l 16.400000 5.900000 l cp s
(BlockingQueue) dup sw 2 div 13.400000 ex sub 6.895000 m
 gs 1 -1 sc sh gr
1.000000 1.000000 1.000000 srgb
n 10.400000 8.900000 m 10.400000 10.800000 l 16.400000 10.800000 l 16.400000 8.900000 l f
0.100000 slw
[] 0 sd
[] 0 sd
0 slj
0.000000 0.000000 0.000000 srgb
n 10.400000 8.900000 m 10.400000 10.800000 l 16.400000 10.800000 l 16.400000 8.900000 l cp s
(Amplitude) dup sw 2 div 13.400000 ex sub 9.895000 m
 gs 1 -1 sc sh gr
1.000000 1.000000 1.000000 srgb
n 20.000000 5.900000 m 20.000000 7.800000 l 26.000000 7.800000 l 26.000000 5.900000 l f
0.100000 slw
[] 0 sd
[] 0 sd
0 slj
0.000000 0.000000 0.000000 srgb
n 20.000000 5.900000 m 20.000000 7.800000 l 26.000000 7.800000 l 26.000000 5.900000 l cp s
(Window1) dup sw 2 div 23.000000 ex sub 6.895000 m
 gs 1 -1 sc sh gr
1.000000 1.000000 1.000000 srgb
n 20.000000 -0.100000 m 20.000000 1.800000 l 26.000000 1.800000 l 26.000000 -0.100000 l f
0.100000 slw
[] 0 sd
[] 0 sd
0 slj
0.000000 0.000000 0.000000 srgb
n 20.000000 -0.100000 m 20.000000 1.800000 l 26.000000 1.800000 l 26.000000 -0.100000 l cp s
(Window2) dup sw 2 div 23.000000 ex sub 0.895000 m
 gs 1 -1 sc sh gr
1.000000 1.000000 1.000000 srgb
n 20.000000 -6.000000 m 20.000000 -4.100000 l 26.000000 -4.100000 l 26.000000 -6.000000 l f
0.100000 slw
[] 0 sd
[] 0 sd
0 slj
0.000000 0.000000 0.000000 srgb
n 20.000000 -6.000000 m 20.000000 -4.100000 l 26.000000 -4.100000 l 26.000000 -6.000000 l cp s
(Window3) dup sw 2 div 23.000000 ex sub -5.005000 m
 gs 1 -1 sc sh gr
0.100000 slw
[] 0 sd
[] 0 sd
0 slc
n 13.400000 -4.050244 m 13.400000 -3.273363 l s
0.100000 slw
[] 0 sd
0 slj
0 slc
n 13.150000 -3.661559 m 13.400000 -3.161559 l 13.650000 -3.661559 l s
0.100000 slw
[] 0 sd
[] 0 sd
0 slc
n 13.400000 -1.049939 m 13.400000 -0.373668 l s
0.100000 slw
[] 0 sd
0 slj
0 slc
n 13.150000 -0.761864 m 13.400000 -0.261864 l 13.650000 -0.761864 l s
0.100000 slw
[] 0 sd
[] 0 sd
0 slc
n 13.400000 1.849756 m 13.400000 2.626637 l s
0.100000 slw
[] 0 sd
0 slj
0 slc
n 13.150000 2.238441 m 13.400000 2.738441 l 13.650000 2.238441 l s
0.100000 slw
[] 0 sd
[] 0 sd
0 slc
n 13.400000 4.849756 m 13.400000 5.626637 l s
0.100000 slw
[] 0 sd
0 slj
0 slc
n 13.150000 5.238441 m 13.400000 5.738441 l 13.650000 5.238441 l s
0.100000 slw
[] 0 sd
[] 0 sd
0 slc
n 13.400000 7.800000 m 13.400000 8.629421 l s
0.100000 slw
[] 0 sd
0 slj
0 slc
n 13.150000 8.241224 m 13.400000 8.741224 l 13.650000 8.241224 l s
1.000000 1.000000 1.000000 srgb
n 20.000000 8.900000 m 20.000000 10.800000 l 26.000000 10.800000 l 26.000000 8.900000 l f
0.100000 slw
[] 0 sd
[] 0 sd
0 slj
0.000000 0.000000 0.000000 srgb
n 20.000000 8.900000 m 20.000000 10.800000 l 26.000000 10.800000 l 26.000000 8.900000 l cp s
(BlockingQueue) dup sw 2 div 23.000000 ex sub 9.895000 m
 gs 1 -1 sc sh gr
1.000000 1.000000 1.000000 srgb
n 20.000000 2.900000 m 20.000000 4.800000 l 26.000000 4.800000 l 26.000000 2.900000 l f
0.100000 slw
[] 0 sd
[] 0 sd
0 slj
0.000000 0.000000 0.000000 srgb
n 20.000000 2.900000 m 20.000000 4.800000 l 26.000000 4.800000 l 26.000000 2.900000 l cp s
(BlockingQueue) dup sw 2 div 23.000000 ex sub 3.895000 m
 gs 1 -1 sc sh gr
1.000000 1.000000 1.000000 srgb
n 20.000000 -3.000000 m 20.000000 -1.100000 l 26.000000 -1.100000 l 26.000000 -3.000000 l f
0.100000 slw
[] 0 sd
[] 0 sd
0 slj
0.000000 0.000000 0.000000 srgb
n 20.000000 -3.000000 m 20.000000 -1.100000 l 26.000000 -1.100000 l 26.000000 -3.000000 l cp s
(BlockingQueue) dup sw 2 div 23.000000 ex sub -2.005000 m
 gs 1 -1 sc sh gr
0.100000 slw
[] 0 sd
[] 0 sd
0 slc
n 16.449805 9.850000 m 19.726589 9.850000 l s
0.100000 slw
[] 0 sd
0 slj
0 slc
n 19.338392 10.100000 m 19.838392 9.850000 l 19.338392 9.600000 l s
0.100000 slw
[] 0 sd
[] 0 sd
0 slc
n 23.000000 8.850244 m 23.000000 8.073363 l s
0.100000 slw
[] 0 sd
0 slj
0 slc
n 23.250000 8.461559 m 23.000000 7.961559 l 22.750000 8.461559 l s
0.100000 slw
[] 0 sd
[] 0 sd
0 slc
n 23.000000 5.850244 m 23.000000 5.073363 l s
0.100000 slw
[] 0 sd
0 slj
0 slc
n 23.250000 5.461559 m 23.000000 4.961559 l 22.750000 5.461559 l s
0.100000 slw
[] 0 sd
[] 0 sd
0 slc
n 23.000000 2.850244 m 23.000000 2.073363 l s
0.100000 slw
[] 0 sd
0 slj
0 slc
n 23.250000 2.461559 m 23.000000 1.961559 l 22.750000 2.461559 l s
0.100000 slw
[] 0 sd
[] 0 sd
0 slc
n 23.000000 -0.150061 m 23.000000 -0.826332 l s
0.100000 slw
[] 0 sd
0 slj
0 slc
n 23.250000 -0.438136 m 23.000000 -0.938136 l 22.750000 -0.438136 l s
0.100000 slw
[] 0 sd
[] 0 sd
0 slc
n 23.000000 -3.046973 m 23.000000 -3.876393 l s
0.100000 slw
[] 0 sd
0 slj
0 slc
n 23.250000 -3.488197 m 23.000000 -3.988197 l 22.750000 -3.488197 l s
1.000000 1.000000 1.000000 srgb
n 29.000000 1.000000 m 29.000000 3.700000 l 35.595000 3.700000 l 35.595000 1.000000 l f
0.100000 slw
[] 0 sd
[] 0 sd
0 slj
0.000000 0.000000 0.000000 srgb
n 29.000000 1.000000 m 29.000000 3.700000 l 35.595000 3.700000 l 35.595000 1.000000 l cp s
(Struct containing) dup sw 2 div 32.297500 ex sub 1.995000 m
 gs 1 -1 sc sh gr
(atomic variables) dup sw 2 div 32.297500 ex sub 2.795000 m
 gs 1 -1 sc sh gr
0.100000 slw
[] 0 sd
[] 0 sd
0 slj
0 slc
n 26.000000 6.850000 m 32.297500 6.850000 l 32.297500 3.923607 l s
0.100000 slw
[] 0 sd
0 slj
0 slc
n 32.547500 4.311803 m 32.297500 3.811803 l 32.047500 4.311803 l s
0.100000 slw
[] 0 sd
[] 0 sd
0 slj
0 slc
n 26.050372 0.850000 m 27.525186 0.850000 l 27.525186 2.350000 l 28.776393 2.350000 l s
0.100000 slw
[] 0 sd
0 slj
0 slc
n 28.388197 2.600000 m 28.888197 2.350000 l 28.388197 2.100000 l s
0.100000 slw
[] 0 sd
[] 0 sd
0 slj
0 slc
n 26.000000 -5.050000 m 32.297500 -5.050000 l 32.297500 0.776393 l s
0.100000 slw
[] 0 sd
0 slj
0 slc
n 32.047500 0.388197 m 32.297500 0.888197 l 32.547500 0.388197 l s
showpage
